\relax 
\providecommand\hyper@newdestlabel[2]{}
\providecommand\HyperFirstAtBeginDocument{\AtBeginDocument}
\HyperFirstAtBeginDocument{\ifx\hyper@anchor\@undefined
\global\let\oldcontentsline\contentsline
\gdef\contentsline#1#2#3#4{\oldcontentsline{#1}{#2}{#3}}
\global\let\oldnewlabel\newlabel
\gdef\newlabel#1#2{\newlabelxx{#1}#2}
\gdef\newlabelxx#1#2#3#4#5#6{\oldnewlabel{#1}{{#2}{#3}}}
\AtEndDocument{\ifx\hyper@anchor\@undefined
\let\contentsline\oldcontentsline
\let\newlabel\oldnewlabel
\fi}
\fi}
\global\let\hyper@last\relax 
\gdef\HyperFirstAtBeginDocument#1{#1}
\providecommand\HyField@AuxAddToFields[1]{}
\providecommand\HyField@AuxAddToCoFields[2]{}
\providecommand\babel@aux[2]{}
\@nameuse{bbl@beforestart}
\providecommand \oddpage@label [2]{}
\babel@aux{english}{}
\@writefile{nav}{\headcommand {\slideentry {0}{0}{1}{1/1}{}{0}}}
\@writefile{nav}{\headcommand {\beamer@framepages {1}{1}}}
\@writefile{nav}{\headcommand {\slideentry {0}{0}{2}{2/3}{}{0}}}
\@writefile{nav}{\headcommand {\beamer@framepages {2}{3}}}
\@writefile{nav}{\headcommand {\slideentry {0}{0}{3}{4/4}{}{0}}}
\@writefile{nav}{\headcommand {\beamer@framepages {4}{4}}}
\newlabel{elongated_network_complexity}{{4}{5}{}{Doc-Start}{}}
\@writefile{snm}{\beamer@slide {elongated_network_complexity}{5}}
\@writefile{nav}{\headcommand {\slideentry {0}{0}{4}{5/5}{}{0}}}
\@writefile{nav}{\headcommand {\beamer@framepages {5}{5}}}
\@writefile{nav}{\headcommand {\slideentry {0}{0}{5}{6/6}{}{0}}}
\@writefile{nav}{\headcommand {\beamer@framepages {6}{6}}}
\@writefile{nav}{\headcommand {\slideentry {0}{0}{6}{7/7}{}{0}}}
\@writefile{nav}{\headcommand {\beamer@framepages {7}{7}}}
\@writefile{nav}{\headcommand {\slideentry {0}{0}{7}{8/8}{}{0}}}
\@writefile{nav}{\headcommand {\beamer@framepages {8}{8}}}
\@writefile{nav}{\headcommand {\slideentry {0}{0}{8}{9/9}{}{0}}}
\@writefile{nav}{\headcommand {\beamer@framepages {9}{9}}}
\@writefile{nav}{\headcommand {\slideentry {0}{0}{9}{10/10}{}{0}}}
\@writefile{nav}{\headcommand {\beamer@framepages {10}{10}}}
\@writefile{nav}{\headcommand {\slideentry {0}{0}{10}{11/11}{}{0}}}
\@writefile{nav}{\headcommand {\beamer@framepages {11}{11}}}
\@writefile{nav}{\headcommand {\slideentry {0}{0}{11}{12/12}{}{0}}}
\@writefile{nav}{\headcommand {\beamer@framepages {12}{12}}}
\@writefile{nav}{\headcommand {\slideentry {0}{0}{12}{13/15}{}{0}}}
\@writefile{nav}{\headcommand {\beamer@framepages {13}{15}}}
\@writefile{nav}{\headcommand {\slideentry {0}{0}{13}{16/16}{}{0}}}
\@writefile{nav}{\headcommand {\beamer@framepages {16}{16}}}
\@writefile{nav}{\headcommand {\slideentry {0}{0}{14}{17/17}{}{0}}}
\@writefile{nav}{\headcommand {\beamer@framepages {17}{17}}}
\@writefile{nav}{\headcommand {\slideentry {0}{0}{15}{18/19}{}{0}}}
\@writefile{nav}{\headcommand {\beamer@framepages {18}{19}}}
\@writefile{nav}{\headcommand {\slideentry {0}{0}{16}{20/20}{}{0}}}
\@writefile{nav}{\headcommand {\beamer@framepages {20}{20}}}
\savepointas {eq11x}{pgfid58}
\savepointas {eq21x}{pgfid60}
\savepointas {eq12x}{pgfid62}
\savepointas {eq22x}{pgfid64}
\savepointas {eq11x}{pgfid66}
\savepointas {eq21x}{pgfid68}
\savepointas {eq12x}{pgfid70}
\savepointas {eq22x}{pgfid72}
\savepicturepage{pgfid65}{24}
\pgfsyspdfmark {pgfid65}{13737935}{9617774}
\savepicturepage{pgfid66}{24}
\pgfsyspdfmark {pgfid66}{21293521}{9617774}
\savepicturepage{pgfid67}{24}
\pgfsyspdfmark {pgfid67}{13737935}{8720753}
\savepicturepage{pgfid68}{24}
\pgfsyspdfmark {pgfid68}{21293521}{8720753}
\savepicturepage{pgfid69}{24}
\pgfsyspdfmark {pgfid69}{13737935}{7823732}
\savepicturepage{pgfid70}{24}
\pgfsyspdfmark {pgfid70}{21293521}{7823732}
\savepicturepage{pgfid71}{24}
\pgfsyspdfmark {pgfid71}{13737935}{6926711}
\savepicturepage{pgfid72}{24}
\pgfsyspdfmark {pgfid72}{21293521}{6926711}
\@writefile{nav}{\headcommand {\slideentry {0}{0}{17}{21/24}{}{0}}}
\@writefile{nav}{\headcommand {\beamer@framepages {21}{24}}}
\savepointas {eq11det1}{pgfid74}
\savepointas {eq11det1}{pgfid75}
\savepointas {eq11det1}{pgfid76}
\savepointas {eq11det1}{pgfid77}
\savepointas {eq11det1}{pgfid78}
\savepointas {eq11det1}{pgfid79}
\savepointas {eq11det1}{pgfid80}
\savepointas {eq11det1}{pgfid81}
\savepointas {eq1125}{pgfid84}
\savepointas {eq2125}{pgfid86}
\savepointas {eq1225}{pgfid88}
\savepointas {eq2225}{pgfid90}
\savepicturepage{pgfid83}{25}
\pgfsyspdfmark {pgfid83}{23351473}{8823899}
\savepicturepage{pgfid84}{25}
\pgfsyspdfmark {pgfid84}{30371297}{8823899}
\savepicturepage{pgfid85}{25}
\pgfsyspdfmark {pgfid85}{23351473}{7758940}
\savepicturepage{pgfid86}{25}
\pgfsyspdfmark {pgfid86}{30371297}{7758940}
\savepicturepage{pgfid87}{25}
\pgfsyspdfmark {pgfid87}{23351473}{6693981}
\savepicturepage{pgfid88}{25}
\pgfsyspdfmark {pgfid88}{30371297}{6693981}
\savepicturepage{pgfid89}{25}
\pgfsyspdfmark {pgfid89}{23351473}{5629022}
\savepicturepage{pgfid90}{25}
\pgfsyspdfmark {pgfid90}{30371297}{5629022}
\savepointas {eq11det1}{pgfid91}
\savepointas {eq11det1}{pgfid92}
\savepointas {eq11det1}{pgfid93}
\savepointas {eq11det1}{pgfid94}
\savepointas {eq11det1}{pgfid95}
\savepointas {eq11det1}{pgfid96}
\savepointas {eq11det1}{pgfid97}
\savepointas {eq11det1}{pgfid98}
\savepointas {eq1126}{pgfid101}
\savepointas {eq2126}{pgfid103}
\savepointas {eq1226}{pgfid105}
\savepointas {eq2226}{pgfid107}
\savepicturepage{pgfid100}{26}
\pgfsyspdfmark {pgfid100}{23351473}{8823899}
\savepicturepage{pgfid101}{26}
\pgfsyspdfmark {pgfid101}{30371297}{8823899}
\savepicturepage{pgfid102}{26}
\pgfsyspdfmark {pgfid102}{23351473}{7758940}
\savepicturepage{pgfid103}{26}
\pgfsyspdfmark {pgfid103}{30371297}{7758940}
\savepicturepage{pgfid104}{26}
\pgfsyspdfmark {pgfid104}{23351473}{6693981}
\savepicturepage{pgfid105}{26}
\pgfsyspdfmark {pgfid105}{30371297}{6693981}
\savepicturepage{pgfid106}{26}
\pgfsyspdfmark {pgfid106}{23351473}{5629022}
\savepicturepage{pgfid107}{26}
\pgfsyspdfmark {pgfid107}{30371297}{5629022}
\savepointas {eq11det1}{pgfid108}
\savepointas {eq11det1}{pgfid109}
\savepointas {eq11det1}{pgfid110}
\savepointas {eq11det1}{pgfid111}
\savepointas {eq11det1}{pgfid112}
\savepointas {eq11det1}{pgfid113}
\savepointas {eq11det1}{pgfid114}
\savepointas {eq11det1}{pgfid115}
\savepointas {eq1127}{pgfid118}
\savepointas {eq2127}{pgfid120}
\savepointas {eq1227}{pgfid122}
\savepointas {eq2227}{pgfid124}
\savepicturepage{pgfid117}{27}
\pgfsyspdfmark {pgfid117}{23351473}{8823899}
\savepicturepage{pgfid118}{27}
\pgfsyspdfmark {pgfid118}{30371297}{8823899}
\savepicturepage{pgfid119}{27}
\pgfsyspdfmark {pgfid119}{23351473}{7758940}
\savepicturepage{pgfid120}{27}
\pgfsyspdfmark {pgfid120}{30371297}{7758940}
\savepicturepage{pgfid121}{27}
\pgfsyspdfmark {pgfid121}{23351473}{6693981}
\savepicturepage{pgfid122}{27}
\pgfsyspdfmark {pgfid122}{30371297}{6693981}
\savepicturepage{pgfid123}{27}
\pgfsyspdfmark {pgfid123}{23351473}{5629022}
\savepicturepage{pgfid124}{27}
\pgfsyspdfmark {pgfid124}{30371297}{5629022}
\savepointas {eq11det1}{pgfid125}
\savepointas {eq11det1}{pgfid126}
\savepointas {eq11det1}{pgfid127}
\savepointas {eq11det1}{pgfid128}
\savepointas {eq11det1}{pgfid129}
\savepointas {eq11det1}{pgfid130}
\savepointas {eq11det1}{pgfid131}
\savepointas {eq11det1}{pgfid132}
\savepointas {eq1128}{pgfid135}
\savepointas {eq2128}{pgfid137}
\savepointas {eq1228}{pgfid139}
\savepointas {eq2228}{pgfid141}
\savepicturepage{pgfid134}{28}
\pgfsyspdfmark {pgfid134}{23351473}{8823899}
\savepicturepage{pgfid135}{28}
\pgfsyspdfmark {pgfid135}{30371297}{8823899}
\savepicturepage{pgfid136}{28}
\pgfsyspdfmark {pgfid136}{23351473}{7758940}
\savepicturepage{pgfid137}{28}
\pgfsyspdfmark {pgfid137}{30371297}{7758940}
\savepicturepage{pgfid138}{28}
\pgfsyspdfmark {pgfid138}{23351473}{6693981}
\savepicturepage{pgfid139}{28}
\pgfsyspdfmark {pgfid139}{30371297}{6693981}
\savepicturepage{pgfid140}{28}
\pgfsyspdfmark {pgfid140}{23351473}{5629022}
\savepicturepage{pgfid141}{28}
\pgfsyspdfmark {pgfid141}{30371297}{5629022}
\savepointas {eq11det1}{pgfid143}
\savepointas {eq11det1}{pgfid145}
\savepointas {eq1129}{pgfid148}
\savepointas {eq2129}{pgfid150}
\savepointas {eq1229}{pgfid152}
\savepointas {eq2229}{pgfid154}
\savepicturepage{pgfid147}{29}
\pgfsyspdfmark {pgfid147}{23351473}{8823899}
\savepicturepage{pgfid148}{29}
\pgfsyspdfmark {pgfid148}{30371297}{8823899}
\savepicturepage{pgfid149}{29}
\pgfsyspdfmark {pgfid149}{23351473}{7758940}
\savepicturepage{pgfid150}{29}
\pgfsyspdfmark {pgfid150}{30371297}{7758940}
\savepicturepage{pgfid151}{29}
\pgfsyspdfmark {pgfid151}{23351473}{6693981}
\savepicturepage{pgfid152}{29}
\pgfsyspdfmark {pgfid152}{30371297}{6693981}
\savepicturepage{pgfid153}{29}
\pgfsyspdfmark {pgfid153}{23351473}{5629022}
\savepicturepage{pgfid154}{29}
\pgfsyspdfmark {pgfid154}{30371297}{5629022}
\savepicturepage{pgfid144}{29}
\pgfsyspdfmark {pgfid144}{1130224}{2235023}
\savepicturepage{pgfid145}{29}
\pgfsyspdfmark {pgfid145}{5600303}{2235023}
\savepointas {eq11det2}{pgfid156}
\savepointas {eq11det2}{pgfid158}
\savepointas {eq1130}{pgfid161}
\savepointas {eq2130}{pgfid163}
\savepointas {eq1230}{pgfid165}
\savepointas {eq2230}{pgfid167}
\savepicturepage{pgfid160}{30}
\pgfsyspdfmark {pgfid160}{23351473}{8823899}
\savepicturepage{pgfid161}{30}
\pgfsyspdfmark {pgfid161}{30371297}{8823899}
\savepicturepage{pgfid162}{30}
\pgfsyspdfmark {pgfid162}{23351473}{7758940}
\savepicturepage{pgfid163}{30}
\pgfsyspdfmark {pgfid163}{30371297}{7758940}
\savepicturepage{pgfid164}{30}
\pgfsyspdfmark {pgfid164}{23351473}{6693981}
\savepicturepage{pgfid165}{30}
\pgfsyspdfmark {pgfid165}{30371297}{6693981}
\savepicturepage{pgfid166}{30}
\pgfsyspdfmark {pgfid166}{23351473}{5629022}
\savepicturepage{pgfid167}{30}
\pgfsyspdfmark {pgfid167}{30371297}{5629022}
\savepicturepage{pgfid157}{30}
\pgfsyspdfmark {pgfid157}{1130224}{2235023}
\savepicturepage{pgfid158}{30}
\pgfsyspdfmark {pgfid158}{6206507}{2235023}
\savepointas {eq11det2}{pgfid169}
\savepointas {eq11det2}{pgfid171}
\savepointas {eq1131}{pgfid174}
\savepointas {eq2131}{pgfid176}
\savepointas {eq1231}{pgfid178}
\savepointas {eq2231}{pgfid180}
\savepicturepage{pgfid173}{31}
\pgfsyspdfmark {pgfid173}{23351473}{8823899}
\savepicturepage{pgfid174}{31}
\pgfsyspdfmark {pgfid174}{30371297}{8823899}
\savepicturepage{pgfid175}{31}
\pgfsyspdfmark {pgfid175}{23351473}{7758940}
\savepicturepage{pgfid176}{31}
\pgfsyspdfmark {pgfid176}{30371297}{7758940}
\savepicturepage{pgfid177}{31}
\pgfsyspdfmark {pgfid177}{23351473}{6693981}
\savepicturepage{pgfid178}{31}
\pgfsyspdfmark {pgfid178}{30371297}{6693981}
\savepicturepage{pgfid179}{31}
\pgfsyspdfmark {pgfid179}{23351473}{5629022}
\savepicturepage{pgfid180}{31}
\pgfsyspdfmark {pgfid180}{30371297}{5629022}
\savepicturepage{pgfid170}{31}
\pgfsyspdfmark {pgfid170}{1130224}{2235023}
\savepicturepage{pgfid171}{31}
\pgfsyspdfmark {pgfid171}{6206507}{2235023}
\savepointas {eq11det2}{pgfid182}
\savepointas {eq11det2}{pgfid184}
\savepointas {eq1132}{pgfid187}
\savepointas {eq2132}{pgfid189}
\savepointas {eq1232}{pgfid191}
\savepointas {eq2232}{pgfid193}
\savepicturepage{pgfid186}{32}
\pgfsyspdfmark {pgfid186}{23351473}{8823899}
\savepicturepage{pgfid187}{32}
\pgfsyspdfmark {pgfid187}{30371297}{8823899}
\savepicturepage{pgfid188}{32}
\pgfsyspdfmark {pgfid188}{23351473}{7758940}
\savepicturepage{pgfid189}{32}
\pgfsyspdfmark {pgfid189}{30371297}{7758940}
\savepicturepage{pgfid190}{32}
\pgfsyspdfmark {pgfid190}{23351473}{6693981}
\savepicturepage{pgfid191}{32}
\pgfsyspdfmark {pgfid191}{30371297}{6693981}
\savepicturepage{pgfid192}{32}
\pgfsyspdfmark {pgfid192}{23351473}{5629022}
\savepicturepage{pgfid193}{32}
\pgfsyspdfmark {pgfid193}{30371297}{5629022}
\savepicturepage{pgfid183}{32}
\pgfsyspdfmark {pgfid183}{1130224}{2235023}
\savepicturepage{pgfid184}{32}
\pgfsyspdfmark {pgfid184}{6206507}{2235023}
\savepointas {eq11det2}{pgfid195}
\savepointas {eq11det2}{pgfid197}
\savepointas {eq1133}{pgfid200}
\savepointas {eq2133}{pgfid202}
\savepointas {eq1233}{pgfid204}
\savepointas {eq2233}{pgfid206}
\savepicturepage{pgfid199}{33}
\pgfsyspdfmark {pgfid199}{23351473}{8823899}
\savepicturepage{pgfid200}{33}
\pgfsyspdfmark {pgfid200}{30371297}{8823899}
\savepicturepage{pgfid201}{33}
\pgfsyspdfmark {pgfid201}{23351473}{7758940}
\savepicturepage{pgfid202}{33}
\pgfsyspdfmark {pgfid202}{30371297}{7758940}
\savepicturepage{pgfid203}{33}
\pgfsyspdfmark {pgfid203}{23351473}{6693981}
\savepicturepage{pgfid204}{33}
\pgfsyspdfmark {pgfid204}{30371297}{6693981}
\savepicturepage{pgfid205}{33}
\pgfsyspdfmark {pgfid205}{23351473}{5629022}
\savepicturepage{pgfid206}{33}
\pgfsyspdfmark {pgfid206}{30371297}{5629022}
\savepicturepage{pgfid196}{33}
\pgfsyspdfmark {pgfid196}{1130224}{2235023}
\savepicturepage{pgfid197}{33}
\pgfsyspdfmark {pgfid197}{6206507}{2235023}
\savepointas {eq11det2}{pgfid208}
\savepointas {eq11det2}{pgfid210}
\savepointas {eq1134}{pgfid213}
\savepointas {eq2134}{pgfid215}
\savepointas {eq1234}{pgfid217}
\savepointas {eq2234}{pgfid219}
\savepicturepage{pgfid212}{34}
\pgfsyspdfmark {pgfid212}{23351473}{8823899}
\savepicturepage{pgfid213}{34}
\pgfsyspdfmark {pgfid213}{30371297}{8823899}
\savepicturepage{pgfid214}{34}
\pgfsyspdfmark {pgfid214}{23351473}{7758940}
\savepicturepage{pgfid215}{34}
\pgfsyspdfmark {pgfid215}{30371297}{7758940}
\savepicturepage{pgfid216}{34}
\pgfsyspdfmark {pgfid216}{23351473}{6693981}
\savepicturepage{pgfid217}{34}
\pgfsyspdfmark {pgfid217}{30371297}{6693981}
\savepicturepage{pgfid218}{34}
\pgfsyspdfmark {pgfid218}{23351473}{5629022}
\savepicturepage{pgfid219}{34}
\pgfsyspdfmark {pgfid219}{30371297}{5629022}
\savepicturepage{pgfid209}{34}
\pgfsyspdfmark {pgfid209}{1130224}{2235023}
\savepicturepage{pgfid210}{34}
\pgfsyspdfmark {pgfid210}{6206507}{2235023}
\savepointas {eq11det3}{pgfid221}
\savepointas {eq11det3}{pgfid223}
\savepointas {eq1135}{pgfid226}
\savepointas {eq2135}{pgfid228}
\savepointas {eq1235}{pgfid230}
\savepointas {eq2235}{pgfid232}
\savepicturepage{pgfid225}{35}
\pgfsyspdfmark {pgfid225}{23351473}{8823899}
\savepicturepage{pgfid226}{35}
\pgfsyspdfmark {pgfid226}{30371297}{8823899}
\savepicturepage{pgfid227}{35}
\pgfsyspdfmark {pgfid227}{23351473}{7758940}
\savepicturepage{pgfid228}{35}
\pgfsyspdfmark {pgfid228}{30371297}{7758940}
\savepicturepage{pgfid229}{35}
\pgfsyspdfmark {pgfid229}{23351473}{6693981}
\savepicturepage{pgfid230}{35}
\pgfsyspdfmark {pgfid230}{30371297}{6693981}
\savepicturepage{pgfid231}{35}
\pgfsyspdfmark {pgfid231}{23351473}{5629022}
\savepicturepage{pgfid232}{35}
\pgfsyspdfmark {pgfid232}{30371297}{5629022}
\savepicturepage{pgfid222}{35}
\pgfsyspdfmark {pgfid222}{1130224}{2235023}
\savepicturepage{pgfid223}{35}
\pgfsyspdfmark {pgfid223}{6206507}{2235023}
\@writefile{nav}{\headcommand {\slideentry {0}{0}{18}{25/35}{}{0}}}
\@writefile{nav}{\headcommand {\beamer@framepages {25}{35}}}
\savepointas {eq1136}{pgfid235}
\savepointas {eq2136}{pgfid237}
\savepointas {eq1236}{pgfid239}
\savepointas {eq2236}{pgfid241}
\savepicturepage{pgfid234}{36}
\pgfsyspdfmark {pgfid234}{23351473}{8823899}
\savepicturepage{pgfid235}{36}
\pgfsyspdfmark {pgfid235}{30371297}{8823899}
\savepicturepage{pgfid236}{36}
\pgfsyspdfmark {pgfid236}{23351473}{7758940}
\savepicturepage{pgfid237}{36}
\pgfsyspdfmark {pgfid237}{30371297}{7758940}
\savepicturepage{pgfid238}{36}
\pgfsyspdfmark {pgfid238}{23351473}{6693981}
\savepicturepage{pgfid239}{36}
\pgfsyspdfmark {pgfid239}{30371297}{6693981}
\savepicturepage{pgfid240}{36}
\pgfsyspdfmark {pgfid240}{23351473}{5629022}
\savepicturepage{pgfid241}{36}
\pgfsyspdfmark {pgfid241}{30371297}{5629022}
\savepointas {eq11detb1}{pgfid243}
\savepointas {eq11detb1}{pgfid245}
\savepointas {eq1137}{pgfid248}
\savepointas {eq2137}{pgfid250}
\savepointas {eq1237}{pgfid252}
\savepointas {eq2237}{pgfid254}
\savepicturepage{pgfid247}{37}
\pgfsyspdfmark {pgfid247}{23351473}{8823899}
\savepicturepage{pgfid248}{37}
\pgfsyspdfmark {pgfid248}{30371297}{8823899}
\savepicturepage{pgfid249}{37}
\pgfsyspdfmark {pgfid249}{23351473}{7758940}
\savepicturepage{pgfid250}{37}
\pgfsyspdfmark {pgfid250}{30371297}{7758940}
\savepicturepage{pgfid251}{37}
\pgfsyspdfmark {pgfid251}{23351473}{6693981}
\savepicturepage{pgfid252}{37}
\pgfsyspdfmark {pgfid252}{30371297}{6693981}
\savepicturepage{pgfid253}{37}
\pgfsyspdfmark {pgfid253}{23351473}{5629022}
\savepicturepage{pgfid254}{37}
\pgfsyspdfmark {pgfid254}{30371297}{5629022}
\savepicturepage{pgfid244}{37}
\pgfsyspdfmark {pgfid244}{2565166}{2235023}
\savepicturepage{pgfid245}{37}
\pgfsyspdfmark {pgfid245}{4131101}{2235023}
\savepointas {eq11detb2}{pgfid256}
\savepointas {eq11detb2}{pgfid258}
\savepointas {eq1138}{pgfid261}
\savepointas {eq2138}{pgfid263}
\savepointas {eq1238}{pgfid265}
\savepointas {eq2238}{pgfid267}
\savepicturepage{pgfid260}{38}
\pgfsyspdfmark {pgfid260}{23351473}{8823899}
\savepicturepage{pgfid261}{38}
\pgfsyspdfmark {pgfid261}{30371297}{8823899}
\savepicturepage{pgfid262}{38}
\pgfsyspdfmark {pgfid262}{23351473}{7758940}
\savepicturepage{pgfid263}{38}
\pgfsyspdfmark {pgfid263}{30371297}{7758940}
\savepicturepage{pgfid264}{38}
\pgfsyspdfmark {pgfid264}{23351473}{6693981}
\savepicturepage{pgfid265}{38}
\pgfsyspdfmark {pgfid265}{30371297}{6693981}
\savepicturepage{pgfid266}{38}
\pgfsyspdfmark {pgfid266}{23351473}{5629022}
\savepicturepage{pgfid267}{38}
\pgfsyspdfmark {pgfid267}{30371297}{5629022}
\savepicturepage{pgfid257}{38}
\pgfsyspdfmark {pgfid257}{1249112}{2235023}
\savepicturepage{pgfid258}{38}
\pgfsyspdfmark {pgfid258}{5447155}{2235023}
\@writefile{nav}{\headcommand {\slideentry {0}{0}{19}{36/38}{}{0}}}
\@writefile{nav}{\headcommand {\beamer@framepages {36}{38}}}
\@writefile{nav}{\headcommand {\slideentry {0}{0}{20}{39/43}{}{0}}}
\@writefile{nav}{\headcommand {\beamer@framepages {39}{43}}}
\@writefile{nav}{\headcommand {\slideentry {0}{0}{21}{44/44}{}{0}}}
\@writefile{nav}{\headcommand {\beamer@framepages {44}{44}}}
\@writefile{nav}{\headcommand {\slideentry {0}{0}{22}{45/45}{}{0}}}
\@writefile{nav}{\headcommand {\beamer@framepages {45}{45}}}
\@writefile{nav}{\headcommand {\slideentry {0}{0}{23}{46/46}{}{0}}}
\@writefile{nav}{\headcommand {\beamer@framepages {46}{46}}}
\@writefile{nav}{\headcommand {\slideentry {0}{0}{24}{47/47}{}{0}}}
\@writefile{nav}{\headcommand {\beamer@framepages {47}{47}}}
\@writefile{nav}{\headcommand {\slideentry {0}{0}{25}{48/48}{}{0}}}
\@writefile{nav}{\headcommand {\beamer@framepages {48}{48}}}
\@writefile{nav}{\headcommand {\slideentry {0}{0}{26}{49/50}{}{0}}}
\@writefile{nav}{\headcommand {\beamer@framepages {49}{50}}}
\savepointas {varselect1start}{pgfid268}
\savepointas {varselect2start}{pgfid269}
\savepointas {varselect1start}{pgfid270}
\savepointas {varselect2start}{pgfid271}
\savepointas {varselect2end}{pgfid272}
\savepointas {varselect1end}{pgfid273}
\savepointas {varselect2end}{pgfid274}
\savepointas {varselect1end}{pgfid275}
\savepointas {eq11detb3}{pgfid277}
\savepointas {eq11detb3}{pgfid279}
\savepointas {eq1151}{pgfid283}
\savepointas {eq2151}{pgfid285}
\savepointas {eq1251}{pgfid287}
\savepointas {eq2251}{pgfid289}
\savepicturepage{pgfid282}{51}
\pgfsyspdfmark {pgfid282}{22885303}{2911330}
\savepicturepage{pgfid283}{51}
\pgfsyspdfmark {pgfid283}{29905127}{2911330}
\savepicturepage{pgfid284}{51}
\pgfsyspdfmark {pgfid284}{22885303}{1846371}
\savepicturepage{pgfid285}{51}
\pgfsyspdfmark {pgfid285}{29905127}{1846371}
\savepicturepage{pgfid286}{51}
\pgfsyspdfmark {pgfid286}{22885303}{781412}
\savepicturepage{pgfid287}{51}
\pgfsyspdfmark {pgfid287}{29905127}{781412}
\savepicturepage{pgfid288}{51}
\pgfsyspdfmark {pgfid288}{22885303}{-283547}
\savepicturepage{pgfid289}{51}
\pgfsyspdfmark {pgfid289}{29905127}{-283547}
\savepicturepage{pgfid270}{51}
\pgfsyspdfmark {pgfid270}{11484757}{8730889}
\savepicturepage{pgfid271}{51}
\pgfsyspdfmark {pgfid271}{17079882}{8730889}
\savepicturepage{pgfid274}{51}
\pgfsyspdfmark {pgfid274}{12306402}{6102238}
\savepicturepage{pgfid275}{51}
\pgfsyspdfmark {pgfid275}{13625303}{6102238}
\savepicturepage{pgfid278}{51}
\pgfsyspdfmark {pgfid278}{2797019}{2482917}
\savepicturepage{pgfid279}{51}
\pgfsyspdfmark {pgfid279}{6995062}{2482917}
\savepicturepage{pgfid280}{51}
\pgfsyspdfmark {pgfid280}{2999087}{1278064}
\savepointas {varselect1start}{pgfid290}
\savepointas {varselect2start}{pgfid291}
\savepointas {varselect1start}{pgfid292}
\savepointas {varselect2start}{pgfid293}
\savepointas {varselect2end}{pgfid294}
\savepointas {varselect1end}{pgfid295}
\savepointas {varselect2end}{pgfid296}
\savepointas {varselect1end}{pgfid297}
\savepointas {eq11detb3}{pgfid299}
\savepointas {eq11detb3}{pgfid301}
\savepointas {eq1152}{pgfid305}
\savepointas {eq2152}{pgfid307}
\savepointas {eq1252}{pgfid309}
\savepointas {eq2252}{pgfid311}
\savepicturepage{pgfid304}{52}
\pgfsyspdfmark {pgfid304}{22885303}{2911330}
\savepicturepage{pgfid305}{52}
\pgfsyspdfmark {pgfid305}{29905127}{2911330}
\savepicturepage{pgfid306}{52}
\pgfsyspdfmark {pgfid306}{22885303}{1846371}
\savepicturepage{pgfid307}{52}
\pgfsyspdfmark {pgfid307}{29905127}{1846371}
\savepicturepage{pgfid308}{52}
\pgfsyspdfmark {pgfid308}{22885303}{781412}
\savepicturepage{pgfid309}{52}
\pgfsyspdfmark {pgfid309}{29905127}{781412}
\savepicturepage{pgfid310}{52}
\pgfsyspdfmark {pgfid310}{22885303}{-283547}
\savepicturepage{pgfid311}{52}
\pgfsyspdfmark {pgfid311}{29905127}{-283547}
\savepicturepage{pgfid292}{52}
\pgfsyspdfmark {pgfid292}{11484757}{8730889}
\savepicturepage{pgfid293}{52}
\pgfsyspdfmark {pgfid293}{17079882}{8730889}
\savepicturepage{pgfid296}{52}
\pgfsyspdfmark {pgfid296}{12306402}{6102238}
\savepicturepage{pgfid297}{52}
\pgfsyspdfmark {pgfid297}{13625303}{6102238}
\savepicturepage{pgfid300}{52}
\pgfsyspdfmark {pgfid300}{2797019}{2482917}
\savepicturepage{pgfid301}{52}
\pgfsyspdfmark {pgfid301}{6995062}{2482917}
\savepicturepage{pgfid302}{52}
\pgfsyspdfmark {pgfid302}{2999087}{1278064}
\savepointas {varselect1start}{pgfid312}
\savepointas {varselect2start}{pgfid313}
\savepointas {varselect1start}{pgfid314}
\savepointas {varselect2start}{pgfid315}
\savepointas {varselect2end}{pgfid316}
\savepointas {varselect1end}{pgfid317}
\savepointas {varselect2end}{pgfid318}
\savepointas {varselect1end}{pgfid319}
\savepointas {eq11detb3}{pgfid321}
\savepointas {eq11detb3}{pgfid323}
\savepointas {eq1153}{pgfid327}
\savepointas {eq2153}{pgfid329}
\savepointas {eq1253}{pgfid331}
\savepointas {eq2253}{pgfid333}
\savepicturepage{pgfid326}{53}
\pgfsyspdfmark {pgfid326}{22885303}{2911330}
\savepicturepage{pgfid327}{53}
\pgfsyspdfmark {pgfid327}{29905127}{2911330}
\savepicturepage{pgfid328}{53}
\pgfsyspdfmark {pgfid328}{22885303}{1846371}
\savepicturepage{pgfid329}{53}
\pgfsyspdfmark {pgfid329}{29905127}{1846371}
\savepicturepage{pgfid330}{53}
\pgfsyspdfmark {pgfid330}{22885303}{781412}
\savepicturepage{pgfid331}{53}
\pgfsyspdfmark {pgfid331}{29905127}{781412}
\savepicturepage{pgfid332}{53}
\pgfsyspdfmark {pgfid332}{22885303}{-283547}
\savepicturepage{pgfid333}{53}
\pgfsyspdfmark {pgfid333}{29905127}{-283547}
\savepicturepage{pgfid314}{53}
\pgfsyspdfmark {pgfid314}{11484757}{8730889}
\savepicturepage{pgfid315}{53}
\pgfsyspdfmark {pgfid315}{17079882}{8730889}
\savepicturepage{pgfid318}{53}
\pgfsyspdfmark {pgfid318}{12306402}{6102238}
\savepicturepage{pgfid319}{53}
\pgfsyspdfmark {pgfid319}{13625303}{6102238}
\savepicturepage{pgfid322}{53}
\pgfsyspdfmark {pgfid322}{2797019}{2482917}
\savepicturepage{pgfid323}{53}
\pgfsyspdfmark {pgfid323}{6995062}{2482917}
\savepicturepage{pgfid324}{53}
\pgfsyspdfmark {pgfid324}{2999087}{1278064}
\savepointas {varselect1start}{pgfid334}
\savepointas {varselect2start}{pgfid335}
\savepointas {varselect1start}{pgfid336}
\savepointas {varselect2start}{pgfid337}
\savepointas {varselect2end}{pgfid338}
\savepointas {varselect1end}{pgfid339}
\savepointas {varselect2end}{pgfid340}
\savepointas {varselect1end}{pgfid341}
\savepointas {eq11detb3}{pgfid343}
\savepointas {eq11detb3}{pgfid345}
\savepointas {eq1154}{pgfid349}
\savepointas {eq2154}{pgfid351}
\savepointas {eq1254}{pgfid353}
\savepointas {eq2254}{pgfid355}
\savepicturepage{pgfid348}{54}
\pgfsyspdfmark {pgfid348}{22885303}{2911330}
\savepicturepage{pgfid349}{54}
\pgfsyspdfmark {pgfid349}{29905127}{2911330}
\savepicturepage{pgfid350}{54}
\pgfsyspdfmark {pgfid350}{22885303}{1846371}
\savepicturepage{pgfid351}{54}
\pgfsyspdfmark {pgfid351}{29905127}{1846371}
\savepicturepage{pgfid352}{54}
\pgfsyspdfmark {pgfid352}{22885303}{781412}
\savepicturepage{pgfid353}{54}
\pgfsyspdfmark {pgfid353}{29905127}{781412}
\savepicturepage{pgfid354}{54}
\pgfsyspdfmark {pgfid354}{22885303}{-283547}
\savepicturepage{pgfid355}{54}
\pgfsyspdfmark {pgfid355}{29905127}{-283547}
\savepicturepage{pgfid336}{54}
\pgfsyspdfmark {pgfid336}{11484757}{8730889}
\savepicturepage{pgfid337}{54}
\pgfsyspdfmark {pgfid337}{17079882}{8730889}
\savepicturepage{pgfid340}{54}
\pgfsyspdfmark {pgfid340}{12306402}{6102238}
\savepicturepage{pgfid341}{54}
\pgfsyspdfmark {pgfid341}{13625303}{6102238}
\savepicturepage{pgfid344}{54}
\pgfsyspdfmark {pgfid344}{2797019}{2482917}
\savepicturepage{pgfid345}{54}
\pgfsyspdfmark {pgfid345}{6995062}{2482917}
\savepicturepage{pgfid346}{54}
\pgfsyspdfmark {pgfid346}{2999087}{1278064}
\savepointas {varselect1start}{pgfid356}
\savepointas {varselect2start}{pgfid357}
\savepointas {varselect1start}{pgfid358}
\savepointas {varselect2start}{pgfid359}
\savepointas {varselect2end}{pgfid360}
\savepointas {varselect1end}{pgfid361}
\savepointas {varselect2end}{pgfid362}
\savepointas {varselect1end}{pgfid363}
\savepointas {eq11detb3}{pgfid365}
\savepointas {eq11detb3}{pgfid367}
\savepointas {eq1155}{pgfid371}
\savepointas {eq2155}{pgfid373}
\savepointas {eq1255}{pgfid375}
\savepointas {eq2255}{pgfid377}
\savepicturepage{pgfid370}{55}
\pgfsyspdfmark {pgfid370}{22885303}{2911330}
\savepicturepage{pgfid371}{55}
\pgfsyspdfmark {pgfid371}{29905127}{2911330}
\savepicturepage{pgfid372}{55}
\pgfsyspdfmark {pgfid372}{22885303}{1846371}
\savepicturepage{pgfid373}{55}
\pgfsyspdfmark {pgfid373}{29905127}{1846371}
\savepicturepage{pgfid374}{55}
\pgfsyspdfmark {pgfid374}{22885303}{781412}
\savepicturepage{pgfid375}{55}
\pgfsyspdfmark {pgfid375}{29905127}{781412}
\savepicturepage{pgfid376}{55}
\pgfsyspdfmark {pgfid376}{22885303}{-283547}
\savepicturepage{pgfid377}{55}
\pgfsyspdfmark {pgfid377}{29905127}{-283547}
\savepicturepage{pgfid358}{55}
\pgfsyspdfmark {pgfid358}{11484757}{8730889}
\savepicturepage{pgfid359}{55}
\pgfsyspdfmark {pgfid359}{17079882}{8730889}
\savepicturepage{pgfid362}{55}
\pgfsyspdfmark {pgfid362}{12306402}{6102238}
\savepicturepage{pgfid363}{55}
\pgfsyspdfmark {pgfid363}{13625303}{6102238}
\savepicturepage{pgfid366}{55}
\pgfsyspdfmark {pgfid366}{2797019}{2482917}
\savepicturepage{pgfid367}{55}
\pgfsyspdfmark {pgfid367}{6995062}{2482917}
\savepicturepage{pgfid368}{55}
\pgfsyspdfmark {pgfid368}{2999087}{1278064}
\@writefile{nav}{\headcommand {\slideentry {0}{0}{27}{51/55}{}{0}}}
\@writefile{nav}{\headcommand {\beamer@framepages {51}{55}}}
\@writefile{nav}{\headcommand {\slideentry {0}{0}{28}{56/56}{}{0}}}
\@writefile{nav}{\headcommand {\beamer@framepages {56}{56}}}
\@writefile{nav}{\headcommand {\slideentry {0}{0}{29}{57/58}{}{0}}}
\@writefile{nav}{\headcommand {\beamer@framepages {57}{58}}}
\@writefile{nav}{\headcommand {\slideentry {0}{0}{30}{59/61}{}{0}}}
\@writefile{nav}{\headcommand {\beamer@framepages {59}{61}}}
\@writefile{nav}{\headcommand {\slideentry {0}{0}{31}{62/62}{}{0}}}
\@writefile{nav}{\headcommand {\beamer@framepages {62}{62}}}
\@writefile{nav}{\headcommand {\slideentry {0}{0}{32}{63/64}{}{0}}}
\@writefile{nav}{\headcommand {\beamer@framepages {63}{64}}}
\@writefile{loa}{\contentsline {algorithm}{\numberline {}{\ignorespaces \textit {lhs}-Iterative-Approx}}}
\@writefile{loa}{\contentsline {algorithm}{\numberline {}{\ignorespaces \textit {lhs}-Iterative-Approx}}}
\@writefile{loa}{\contentsline {algorithm}{\numberline {}{\ignorespaces \textit {lhs}-Iterative-Approx}}}
\@writefile{loa}{\contentsline {algorithm}{\numberline {}{\ignorespaces \textit {lhs}-Iterative-Approx}}}
\@writefile{loa}{\contentsline {algorithm}{\numberline {}{\ignorespaces \textit {lhs}-Iterative-Approx}}}
\@writefile{loa}{\contentsline {algorithm}{\numberline {}{\ignorespaces \textit {lhs}-Iterative-Approx}}}
\@writefile{loa}{\contentsline {algorithm}{\numberline {}{\ignorespaces \textit {lhs}-Iterative-Approx}}}
\@writefile{loa}{\contentsline {algorithm}{\numberline {}{\ignorespaces \textit {lhs}-Iterative-Approx}}}
\@writefile{nav}{\headcommand {\slideentry {0}{0}{33}{65/72}{}{0}}}
\@writefile{nav}{\headcommand {\beamer@framepages {65}{72}}}
\@writefile{nav}{\headcommand {\slideentry {0}{0}{34}{73/73}{}{0}}}
\@writefile{nav}{\headcommand {\beamer@framepages {73}{73}}}
\@writefile{nav}{\headcommand {\slideentry {0}{0}{35}{74/74}{}{0}}}
\@writefile{nav}{\headcommand {\beamer@framepages {74}{74}}}
\@writefile{nav}{\headcommand {\slideentry {0}{0}{36}{75/75}{}{0}}}
\@writefile{nav}{\headcommand {\beamer@framepages {75}{75}}}
\@writefile{loa}{\contentsline {algorithm}{\numberline {}{\ignorespaces \textit {lhs}-Iterative-Approx}}}
\@writefile{nav}{\headcommand {\slideentry {0}{0}{37}{76/76}{}{0}}}
\@writefile{nav}{\headcommand {\beamer@framepages {76}{76}}}
\savepointas {phiga}{pgfid414}
\savepointas {psiga}{pgfid415}
\savepointas {phiga}{pgfid416}
\savepointas {psiga}{pgfid417}
\savepicturepage{pgfid416}{77}
\pgfsyspdfmark {pgfid416}{22118573}{14527580}
\savepicturepage{pgfid417}{77}
\pgfsyspdfmark {pgfid417}{22231073}{11721326}
\savepointas {phiga}{pgfid418}
\savepointas {psiga}{pgfid419}
\savepointas {phiga}{pgfid420}
\savepointas {psiga}{pgfid421}
\savepicturepage{pgfid420}{78}
\pgfsyspdfmark {pgfid420}{22118573}{14527580}
\savepicturepage{pgfid421}{78}
\pgfsyspdfmark {pgfid421}{22231073}{11721326}
\@writefile{nav}{\headcommand {\slideentry {0}{0}{38}{77/78}{}{0}}}
\@writefile{nav}{\headcommand {\beamer@framepages {77}{78}}}
\savepointas {phigb}{pgfid422}
\savepointas {psigb}{pgfid423}
\savepointas {phigb}{pgfid424}
\savepointas {psigb}{pgfid425}
\savepicturepage{pgfid424}{79}
\pgfsyspdfmark {pgfid424}{19366550}{8373736}
\savepicturepage{pgfid425}{79}
\pgfsyspdfmark {pgfid425}{14806191}{6549239}
\savepicturepage{pgfid426}{79}
\pgfsyspdfmark {pgfid426}{19781205}{8102312}
\savepointas {phigb}{pgfid427}
\savepointas {psigb}{pgfid428}
\savepointas {phigb}{pgfid429}
\savepointas {psigb}{pgfid430}
\savepicturepage{pgfid429}{80}
\pgfsyspdfmark {pgfid429}{19366550}{8373736}
\savepicturepage{pgfid430}{80}
\pgfsyspdfmark {pgfid430}{14806191}{6549239}
\savepicturepage{pgfid431}{80}
\pgfsyspdfmark {pgfid431}{19781205}{8102312}
\savepointas {phigb}{pgfid432}
\savepointas {psigb}{pgfid433}
\savepointas {phigb}{pgfid434}
\savepointas {psigb}{pgfid435}
\savepicturepage{pgfid434}{81}
\pgfsyspdfmark {pgfid434}{19366550}{8373736}
\savepicturepage{pgfid435}{81}
\pgfsyspdfmark {pgfid435}{14806191}{6549239}
\savepicturepage{pgfid436}{81}
\pgfsyspdfmark {pgfid436}{19781205}{8102312}
\@writefile{nav}{\headcommand {\slideentry {0}{0}{39}{79/81}{}{0}}}
\@writefile{nav}{\headcommand {\beamer@framepages {79}{81}}}
\@writefile{nav}{\headcommand {\slideentry {0}{0}{40}{82/82}{}{0}}}
\@writefile{nav}{\headcommand {\beamer@framepages {82}{82}}}
\@writefile{nav}{\headcommand {\slideentry {0}{0}{41}{83/87}{}{0}}}
\@writefile{nav}{\headcommand {\beamer@framepages {83}{87}}}
\@writefile{nav}{\headcommand {\slideentry {0}{0}{42}{88/88}{}{0}}}
\@writefile{nav}{\headcommand {\beamer@framepages {88}{88}}}
\savepointas {phiga}{pgfid437}
\savepointas {psiga}{pgfid438}
\savepointas {phiga}{pgfid439}
\savepointas {psiga}{pgfid440}
\savepicturepage{pgfid439}{89}
\pgfsyspdfmark {pgfid439}{22118573}{14527580}
\savepicturepage{pgfid440}{89}
\pgfsyspdfmark {pgfid440}{22231073}{11721326}
\@writefile{nav}{\headcommand {\slideentry {0}{0}{43}{89/89}{}{0}}}
\@writefile{nav}{\headcommand {\beamer@framepages {89}{89}}}
\savepointas {phigb}{pgfid441}
\savepointas {psigb}{pgfid442}
\savepointas {phigb}{pgfid443}
\savepointas {psigb}{pgfid444}
\savepicturepage{pgfid443}{90}
\pgfsyspdfmark {pgfid443}{19366550}{8373736}
\savepicturepage{pgfid444}{90}
\pgfsyspdfmark {pgfid444}{14806191}{6549239}
\savepicturepage{pgfid445}{90}
\pgfsyspdfmark {pgfid445}{19781205}{8102312}
\@writefile{nav}{\headcommand {\slideentry {0}{0}{44}{90/90}{}{0}}}
\@writefile{nav}{\headcommand {\beamer@framepages {90}{90}}}
\@writefile{nav}{\headcommand {\slideentry {0}{0}{45}{91/94}{}{0}}}
\@writefile{nav}{\headcommand {\beamer@framepages {91}{94}}}
\@writefile{nav}{\headcommand {\slideentry {0}{0}{46}{95/95}{}{0}}}
\@writefile{nav}{\headcommand {\beamer@framepages {95}{95}}}
\newlabel{elongated_network_complexity}{{47}{96}{}{Doc-Start}{}}
\@writefile{snm}{\beamer@slide {elongated_network_complexity}{96}}
\@writefile{nav}{\headcommand {\slideentry {0}{0}{47}{96/96}{}{0}}}
\@writefile{nav}{\headcommand {\beamer@framepages {96}{96}}}
\@writefile{nav}{\headcommand {\slideentry {0}{0}{48}{97/102}{}{0}}}
\@writefile{nav}{\headcommand {\beamer@framepages {97}{102}}}
\@writefile{nav}{\headcommand {\beamer@partpages {1}{102}}}
\@writefile{nav}{\headcommand {\beamer@subsectionpages {1}{102}}}
\@writefile{nav}{\headcommand {\beamer@sectionpages {1}{102}}}
\@writefile{nav}{\headcommand {\beamer@documentpages {102}}}
\@writefile{nav}{\headcommand {\gdef \inserttotalframenumber {48}}}
