share-of-critical,connector-capacity,marked_for_inspection,path,name,structure_graph_tip,structure_graph_shelter_orphans,structure_graph_only_tip_fringes,structure_graph_only_tip_extreme_layer,structure_graph_number_of_nodes,structure_graph_number_of_steps,structure_graph_random_attribute_generator,structure_graph_number_of_edges,structure_graph_fuzzing_distance_from,structure_graph_fuzzing_distance_to,structure_graph_random_attribute_generator,structure_graph_at_least_strongly_connected,structure_graph_at_least_weakly_connected,structure_graph_acyclic,structure_graph_simple,structure_graph_anti_reflexive,cluster_tip,cluster_shelter_orphans,cluster_only_tip_fringes,cluster_only_tip_extreme_layer,cluster_number_of_nodes,cluster_number_of_steps,cluster_random_attribute_generator,cluster_number_of_edges,cluster_fuzzing_distance_from,cluster_fuzzing_distance_to,cluster_random_attribute_generator,cluster_at_least_strongly_connected,cluster_at_least_weakly_connected,cluster_acyclic,cluster_simple,cluster_anti_reflexive,default_edge_attributes,default_node_attributes,structure_graph_edge_tipping_random_attribute_generator,structure_graph_node_tipping_random_attribute_generator,cluster_edge_tipping_random_attribute_generator,cluster_node_tipping_random_attribute_generator,number_of_epochs,share_of_critical,critical_selection_policy,example_number_of_edges,example_number_of_nodes,example_avg_incid_per_node,example_number_of_critical_edges,example_share_of_critical,example_number_of_epochs,example_path_length_lower_bound,maintenance_problem_ip_time_in_sec,maintenance_problem_ip_number_of_bnb_runs,maintenance_problem_ip_number_of_reopt_runs,maintenance_problem_ip_number_of_nodes_explored,maintenance_problem_ip_max_depth,maintenance_problem_ip_dual_bound,maintenance_problem_ip_primal_bound,maintenance_problem_ip_gap,maintenance_problem_ip_number_of_primal_sols,maintenance_problem_benders_time_in_sec,maintenance_problem_benders_number_of_bnb_runs,maintenance_problem_benders_number_of_reopt_runs,maintenance_problem_benders_number_of_nodes_explored,maintenance_problem_benders_max_depth,maintenance_problem_benders_dual_bound,maintenance_problem_benders_primal_bound,maintenance_problem_benders_gap,maintenance_problem_benders_number_of_primal_sols
0.2,20,0,raster_pos:share-of-critical=0.2_connector-capacity=20,instance.test_data,0,0,0,0,40,1,random_attribute_generator {  } ,250,0,0,random_attribute_generator { Upper =  { fix Integral 1 100 }  } ,0,0,1,1,1,0,0,0,0,5,1,random_attribute_generator {  } ,26,0,0,random_attribute_generator { Upper =  { fix Integral 1 100 }  } ,0,0,1,0,1,Attributes { Edgepotential = Attribute { min Continuous 0 } Selected = Attribute { fix Continuous 0 } Upper = Attribute { fix Continuous 1 } Flow = Attribute { max Continuous 0 } } ,Attributes { Nodepotential = Attribute { min Continuous 0 } } ,random_attribute_generator { Upper =  { fix Integral 1 20 }  } ,random_attribute_generator {  } ,random_attribute_generator { Upper =  { fix Integral 1 100 }  } ,random_attribute_generator {  } ,3,1,network_connectors,1238,192,12.8958,250,0.201939,3,3,4.40073,1,0,789.5,19.5,291.5,291.5,0,8.5,1.27459,1,0,337.5,18,291.5,291.5,0,13
0.2,40,0,raster_pos:share-of-critical=0.2_connector-capacity=40,instance.test_data,0,0,0,0,40,1,random_attribute_generator {  } ,250,0,0,random_attribute_generator { Upper =  { fix Integral 1 100 }  } ,0,0,1,1,1,0,0,0,0,5,1,random_attribute_generator {  } ,26,0,0,random_attribute_generator { Upper =  { fix Integral 1 100 }  } ,0,0,1,0,1,Attributes { Edgepotential = Attribute { min Continuous 0 } Selected = Attribute { fix Continuous 0 } Upper = Attribute { fix Continuous 1 } Flow = Attribute { max Continuous 0 } } ,Attributes { Nodepotential = Attribute { min Continuous 0 } } ,random_attribute_generator { Upper =  { fix Integral 1 40 }  } ,random_attribute_generator {  } ,random_attribute_generator { Upper =  { fix Integral 1 100 }  } ,random_attribute_generator {  } ,3,1,network_connectors,1238,192,12.8958,250,0.201939,3,3,2.99294,1,0,300.5,20,259,259,0,8,1.62642,1,0,308,17.5,259,259,0,13.5
0.2,60,0,raster_pos:share-of-critical=0.2_connector-capacity=60,instance.test_data,0,0,0,0,40,1,random_attribute_generator {  } ,250,0,0,random_attribute_generator { Upper =  { fix Integral 1 100 }  } ,0,0,1,1,1,0,0,0,0,5,1,random_attribute_generator {  } ,26,0,0,random_attribute_generator { Upper =  { fix Integral 1 100 }  } ,0,0,1,0,1,Attributes { Edgepotential = Attribute { min Continuous 0 } Selected = Attribute { fix Continuous 0 } Upper = Attribute { fix Continuous 1 } Flow = Attribute { max Continuous 0 } } ,Attributes { Nodepotential = Attribute { min Continuous 0 } } ,random_attribute_generator { Upper =  { fix Integral 1 60 }  } ,random_attribute_generator {  } ,random_attribute_generator { Upper =  { fix Integral 1 100 }  } ,random_attribute_generator {  } ,3,1,network_connectors,1238,192,12.8958,250,0.201939,3,3,3.97438,1,0,340,20,271.5,271.5,0,7,0.93213,1,0,202.5,15,271.5,271.5,0,12.5
0.2,80,0,raster_pos:share-of-critical=0.2_connector-capacity=80,instance.test_data,0,0,0,0,40,1,random_attribute_generator {  } ,250,0,0,random_attribute_generator { Upper =  { fix Integral 1 100 }  } ,0,0,1,1,1,0,0,0,0,5,1,random_attribute_generator {  } ,26,0,0,random_attribute_generator { Upper =  { fix Integral 1 100 }  } ,0,0,1,0,1,Attributes { Edgepotential = Attribute { min Continuous 0 } Selected = Attribute { fix Continuous 0 } Upper = Attribute { fix Continuous 1 } Flow = Attribute { max Continuous 0 } } ,Attributes { Nodepotential = Attribute { min Continuous 0 } } ,random_attribute_generator { Upper =  { fix Integral 1 80 }  } ,random_attribute_generator {  } ,random_attribute_generator { Upper =  { fix Integral 1 100 }  } ,random_attribute_generator {  } ,3,1,network_connectors,1238,192,12.8958,250,0.201939,3,3,5.33113,1,0,683.5,24.5,276,276,0,8.5,1.8757,1,0,419,19.5,276,276,0,11.5
0.2,100,0,raster_pos:share-of-critical=0.2_connector-capacity=100,instance.test_data,0,0,0,0,40,1,random_attribute_generator {  } ,250,0,0,random_attribute_generator { Upper =  { fix Integral 1 100 }  } ,0,0,1,1,1,0,0,0,0,5,1,random_attribute_generator {  } ,26,0,0,random_attribute_generator { Upper =  { fix Integral 1 100 }  } ,0,0,1,0,1,Attributes { Edgepotential = Attribute { min Continuous 0 } Selected = Attribute { fix Continuous 0 } Upper = Attribute { fix Continuous 1 } Flow = Attribute { max Continuous 0 } } ,Attributes { Nodepotential = Attribute { min Continuous 0 } } ,random_attribute_generator { Upper =  { fix Integral 1 100 }  } ,random_attribute_generator {  } ,random_attribute_generator { Upper =  { fix Integral 1 100 }  } ,random_attribute_generator {  } ,3,1,network_connectors,1238,192,12.8958,250,0.201939,3,3,1.99543,1,0,153,13.5,275.5,275.5,0,6,0.905389,1,0,184,14.5,275.5,275.5,0,10.5
0.2,120,0,raster_pos:share-of-critical=0.2_connector-capacity=120,instance.test_data,0,0,0,0,40,1,random_attribute_generator {  } ,250,0,0,random_attribute_generator { Upper =  { fix Integral 1 100 }  } ,0,0,1,1,1,0,0,0,0,5,1,random_attribute_generator {  } ,26,0,0,random_attribute_generator { Upper =  { fix Integral 1 100 }  } ,0,0,1,0,1,Attributes { Edgepotential = Attribute { min Continuous 0 } Selected = Attribute { fix Continuous 0 } Upper = Attribute { fix Continuous 1 } Flow = Attribute { max Continuous 0 } } ,Attributes { Nodepotential = Attribute { min Continuous 0 } } ,random_attribute_generator { Upper =  { fix Integral 1 120 }  } ,random_attribute_generator {  } ,random_attribute_generator { Upper =  { fix Integral 1 100 }  } ,random_attribute_generator {  } ,3,1,network_connectors,1238,192,12.8958,250,0.201939,3,3,4.54163,1,0,402,19.5,295.5,295.5,0,8,1.51567,1,0,259,20,295.5,295.5,0,16.5
0.2,140,0,raster_pos:share-of-critical=0.2_connector-capacity=140,instance.test_data,0,0,0,0,40,1,random_attribute_generator {  } ,250,0,0,random_attribute_generator { Upper =  { fix Integral 1 100 }  } ,0,0,1,1,1,0,0,0,0,5,1,random_attribute_generator {  } ,26,0,0,random_attribute_generator { Upper =  { fix Integral 1 100 }  } ,0,0,1,0,1,Attributes { Edgepotential = Attribute { min Continuous 0 } Selected = Attribute { fix Continuous 0 } Upper = Attribute { fix Continuous 1 } Flow = Attribute { max Continuous 0 } } ,Attributes { Nodepotential = Attribute { min Continuous 0 } } ,random_attribute_generator { Upper =  { fix Integral 1 140 }  } ,random_attribute_generator {  } ,random_attribute_generator { Upper =  { fix Integral 1 100 }  } ,random_attribute_generator {  } ,3,1,network_connectors,1238,192,12.8958,250,0.201939,3,1,8.40913,1,0,1051.5,25,333.5,333.5,0,8.5,2.08824,1,0,707.5,22,333.5,333.5,0,12.5
0.2,160,0,raster_pos:share-of-critical=0.2_connector-capacity=160,instance.test_data,0,0,0,0,40,1,random_attribute_generator {  } ,250,0,0,random_attribute_generator { Upper =  { fix Integral 1 100 }  } ,0,0,1,1,1,0,0,0,0,5,1,random_attribute_generator {  } ,26,0,0,random_attribute_generator { Upper =  { fix Integral 1 100 }  } ,0,0,1,0,1,Attributes { Edgepotential = Attribute { min Continuous 0 } Selected = Attribute { fix Continuous 0 } Upper = Attribute { fix Continuous 1 } Flow = Attribute { max Continuous 0 } } ,Attributes { Nodepotential = Attribute { min Continuous 0 } } ,random_attribute_generator { Upper =  { fix Integral 1 160 }  } ,random_attribute_generator {  } ,random_attribute_generator { Upper =  { fix Integral 1 100 }  } ,random_attribute_generator {  } ,3,1,network_connectors,1238,192,12.8958,250,0.201939,3,3,4.01982,1,0,546,24,280,280,0,8.5,1.3314,1,0,397,16,280,280,0,11.5
0.2,180,0,raster_pos:share-of-critical=0.2_connector-capacity=180,instance.test_data,0,0,0,0,40,1,random_attribute_generator {  } ,250,0,0,random_attribute_generator { Upper =  { fix Integral 1 100 }  } ,0,0,1,1,1,0,0,0,0,5,1,random_attribute_generator {  } ,26,0,0,random_attribute_generator { Upper =  { fix Integral 1 100 }  } ,0,0,1,0,1,Attributes { Edgepotential = Attribute { min Continuous 0 } Selected = Attribute { fix Continuous 0 } Upper = Attribute { fix Continuous 1 } Flow = Attribute { max Continuous 0 } } ,Attributes { Nodepotential = Attribute { min Continuous 0 } } ,random_attribute_generator { Upper =  { fix Integral 1 180 }  } ,random_attribute_generator {  } ,random_attribute_generator { Upper =  { fix Integral 1 100 }  } ,random_attribute_generator {  } ,3,1,network_connectors,1238,192,12.8958,250,0.201939,3,1,4.78711,1,0,515.5,21.5,269.5,269.5,0,8,1.08394,1,0,274,18,269.5,269.5,0,13
0.2,200,0,raster_pos:share-of-critical=0.2_connector-capacity=200,instance.test_data,0,0,0,0,40,1,random_attribute_generator {  } ,250,0,0,random_attribute_generator { Upper =  { fix Integral 1 100 }  } ,0,0,1,1,1,0,0,0,0,5,1,random_attribute_generator {  } ,26,0,0,random_attribute_generator { Upper =  { fix Integral 1 100 }  } ,0,0,1,0,1,Attributes { Edgepotential = Attribute { min Continuous 0 } Selected = Attribute { fix Continuous 0 } Upper = Attribute { fix Continuous 1 } Flow = Attribute { max Continuous 0 } } ,Attributes { Nodepotential = Attribute { min Continuous 0 } } ,random_attribute_generator { Upper =  { fix Integral 1 200 }  } ,random_attribute_generator {  } ,random_attribute_generator { Upper =  { fix Integral 1 100 }  } ,random_attribute_generator {  } ,3,1,network_connectors,1238,192,12.8958,250,0.201939,3,3,5.01836,1,0,464,21,304,304,0,7,1.73594,1,0,442,17.5,304,304,0,13
0.3,20,0,raster_pos:share-of-critical=0.3_connector-capacity=20,instance.test_data,0,0,0,0,40,1,random_attribute_generator {  } ,250,0,0,random_attribute_generator { Upper =  { fix Integral 1 100 }  } ,0,0,1,1,1,0,0,0,0,3,1,random_attribute_generator {  } ,15,0,0,random_attribute_generator { Upper =  { fix Integral 1 100 }  } ,0,0,1,0,1,Attributes { Edgepotential = Attribute { min Continuous 0 } Selected = Attribute { fix Continuous 0 } Upper = Attribute { fix Continuous 1 } Flow = Attribute { max Continuous 0 } } ,Attributes { Nodepotential = Attribute { min Continuous 0 } } ,random_attribute_generator { Upper =  { fix Integral 1 20 }  } ,random_attribute_generator {  } ,random_attribute_generator { Upper =  { fix Integral 1 100 }  } ,random_attribute_generator {  } ,3,1,network_connectors,820,116,14.1379,250,0.304878,3,3,4.45857,1,0,622,21.5,312,312,0,8.5,1.14827,1,0,376.5,17.5,312,312,0,12
0.3,40,0,raster_pos:share-of-critical=0.3_connector-capacity=40,instance.test_data,0,0,0,0,40,1,random_attribute_generator {  } ,250,0,0,random_attribute_generator { Upper =  { fix Integral 1 100 }  } ,0,0,1,1,1,0,0,0,0,3,1,random_attribute_generator {  } ,15,0,0,random_attribute_generator { Upper =  { fix Integral 1 100 }  } ,0,0,1,0,1,Attributes { Edgepotential = Attribute { min Continuous 0 } Selected = Attribute { fix Continuous 0 } Upper = Attribute { fix Continuous 1 } Flow = Attribute { max Continuous 0 } } ,Attributes { Nodepotential = Attribute { min Continuous 0 } } ,random_attribute_generator { Upper =  { fix Integral 1 40 }  } ,random_attribute_generator {  } ,random_attribute_generator { Upper =  { fix Integral 1 100 }  } ,random_attribute_generator {  } ,3,1,network_connectors,820,116,14.1379,250,0.304878,3,5,3.37051,1,0,487.5,22.5,276,276,0,8.5,0.891893,1,0,209.5,18.5,276,276,0,13
0.3,60,0,raster_pos:share-of-critical=0.3_connector-capacity=60,instance.test_data,0,0,0,0,40,1,random_attribute_generator {  } ,250,0,0,random_attribute_generator { Upper =  { fix Integral 1 100 }  } ,0,0,1,1,1,0,0,0,0,3,1,random_attribute_generator {  } ,15,0,0,random_attribute_generator { Upper =  { fix Integral 1 100 }  } ,0,0,1,0,1,Attributes { Edgepotential = Attribute { min Continuous 0 } Selected = Attribute { fix Continuous 0 } Upper = Attribute { fix Continuous 1 } Flow = Attribute { max Continuous 0 } } ,Attributes { Nodepotential = Attribute { min Continuous 0 } } ,random_attribute_generator { Upper =  { fix Integral 1 60 }  } ,random_attribute_generator {  } ,random_attribute_generator { Upper =  { fix Integral 1 100 }  } ,random_attribute_generator {  } ,3,1,network_connectors,820,116,14.1379,250,0.304878,3,1,6.79575,1,0,1423.5,24,318.5,318.5,0,9.5,1.27007,1,0,553.5,19,318.5,318.5,0,16
0.3,80,0,raster_pos:share-of-critical=0.3_connector-capacity=80,instance.test_data,0,0,0,0,40,1,random_attribute_generator {  } ,250,0,0,random_attribute_generator { Upper =  { fix Integral 1 100 }  } ,0,0,1,1,1,0,0,0,0,3,1,random_attribute_generator {  } ,15,0,0,random_attribute_generator { Upper =  { fix Integral 1 100 }  } ,0,0,1,0,1,Attributes { Edgepotential = Attribute { min Continuous 0 } Selected = Attribute { fix Continuous 0 } Upper = Attribute { fix Continuous 1 } Flow = Attribute { max Continuous 0 } } ,Attributes { Nodepotential = Attribute { min Continuous 0 } } ,random_attribute_generator { Upper =  { fix Integral 1 80 }  } ,random_attribute_generator {  } ,random_attribute_generator { Upper =  { fix Integral 1 100 }  } ,random_attribute_generator {  } ,3,1,network_connectors,820,116,14.1379,250,0.304878,3,3,4.21903,1,0,475.5,21.5,314.5,314.5,0,9,1.63403,1,0,339,21,314.5,314.5,0,17.5
0.3,100,0,raster_pos:share-of-critical=0.3_connector-capacity=100,instance.test_data,0,0,0,0,40,1,random_attribute_generator {  } ,250,0,0,random_attribute_generator { Upper =  { fix Integral 1 100 }  } ,0,0,1,1,1,0,0,0,0,3,1,random_attribute_generator {  } ,15,0,0,random_attribute_generator { Upper =  { fix Integral 1 100 }  } ,0,0,1,0,1,Attributes { Edgepotential = Attribute { min Continuous 0 } Selected = Attribute { fix Continuous 0 } Upper = Attribute { fix Continuous 1 } Flow = Attribute { max Continuous 0 } } ,Attributes { Nodepotential = Attribute { min Continuous 0 } } ,random_attribute_generator { Upper =  { fix Integral 1 100 }  } ,random_attribute_generator {  } ,random_attribute_generator { Upper =  { fix Integral 1 100 }  } ,random_attribute_generator {  } ,3,1,network_connectors,820,116,14.1379,250,0.304878,3,1,1.86329,1,0,233,18,261,261,0,8,0.704271,1,0,180,12,261,261,0,10
0.3,120,0,raster_pos:share-of-critical=0.3_connector-capacity=120,instance.test_data,0,0,0,0,40,1,random_attribute_generator {  } ,250,0,0,random_attribute_generator { Upper =  { fix Integral 1 100 }  } ,0,0,1,1,1,0,0,0,0,3,1,random_attribute_generator {  } ,15,0,0,random_attribute_generator { Upper =  { fix Integral 1 100 }  } ,0,0,1,0,1,Attributes { Edgepotential = Attribute { min Continuous 0 } Selected = Attribute { fix Continuous 0 } Upper = Attribute { fix Continuous 1 } Flow = Attribute { max Continuous 0 } } ,Attributes { Nodepotential = Attribute { min Continuous 0 } } ,random_attribute_generator { Upper =  { fix Integral 1 120 }  } ,random_attribute_generator {  } ,random_attribute_generator { Upper =  { fix Integral 1 100 }  } ,random_attribute_generator {  } ,3,1,network_connectors,820,116,14.1379,250,0.304878,3,1,2.90664,1,0,422.5,20.5,277.5,277.5,0,7.5,0.624788,1,0,160.5,13,277.5,277.5,0,13
0.3,140,0,raster_pos:share-of-critical=0.3_connector-capacity=140,instance.test_data,0,0,0,0,40,1,random_attribute_generator {  } ,250,0,0,random_attribute_generator { Upper =  { fix Integral 1 100 }  } ,0,0,1,1,1,0,0,0,0,3,1,random_attribute_generator {  } ,15,0,0,random_attribute_generator { Upper =  { fix Integral 1 100 }  } ,0,0,1,0,1,Attributes { Edgepotential = Attribute { min Continuous 0 } Selected = Attribute { fix Continuous 0 } Upper = Attribute { fix Continuous 1 } Flow = Attribute { max Continuous 0 } } ,Attributes { Nodepotential = Attribute { min Continuous 0 } } ,random_attribute_generator { Upper =  { fix Integral 1 140 }  } ,random_attribute_generator {  } ,random_attribute_generator { Upper =  { fix Integral 1 100 }  } ,random_attribute_generator {  } ,3,1,network_connectors,820,116,14.1379,250,0.304878,3,3,3.30625,1,0,585.5,21,288.5,288.5,0,9,1.06774,1,0,384,16,288.5,288.5,0,14
0.3,160,0,raster_pos:share-of-critical=0.3_connector-capacity=160,instance.test_data,0,0,0,0,40,1,random_attribute_generator {  } ,250,0,0,random_attribute_generator { Upper =  { fix Integral 1 100 }  } ,0,0,1,1,1,0,0,0,0,3,1,random_attribute_generator {  } ,15,0,0,random_attribute_generator { Upper =  { fix Integral 1 100 }  } ,0,0,1,0,1,Attributes { Edgepotential = Attribute { min Continuous 0 } Selected = Attribute { fix Continuous 0 } Upper = Attribute { fix Continuous 1 } Flow = Attribute { max Continuous 0 } } ,Attributes { Nodepotential = Attribute { min Continuous 0 } } ,random_attribute_generator { Upper =  { fix Integral 1 160 }  } ,random_attribute_generator {  } ,random_attribute_generator { Upper =  { fix Integral 1 100 }  } ,random_attribute_generator {  } ,3,1,network_connectors,820,116,14.1379,250,0.304878,3,1,5.3342,1,0,716,23,328,328,0,9,1.56862,1,0,530.5,22,328,328,0,16
0.3,180,0,raster_pos:share-of-critical=0.3_connector-capacity=180,instance.test_data,0,0,0,0,40,1,random_attribute_generator {  } ,250,0,0,random_attribute_generator { Upper =  { fix Integral 1 100 }  } ,0,0,1,1,1,0,0,0,0,3,1,random_attribute_generator {  } ,15,0,0,random_attribute_generator { Upper =  { fix Integral 1 100 }  } ,0,0,1,0,1,Attributes { Edgepotential = Attribute { min Continuous 0 } Selected = Attribute { fix Continuous 0 } Upper = Attribute { fix Continuous 1 } Flow = Attribute { max Continuous 0 } } ,Attributes { Nodepotential = Attribute { min Continuous 0 } } ,random_attribute_generator { Upper =  { fix Integral 1 180 }  } ,random_attribute_generator {  } ,random_attribute_generator { Upper =  { fix Integral 1 100 }  } ,random_attribute_generator {  } ,3,1,network_connectors,820,116,14.1379,250,0.304878,3,1,2.56324,1,0,276,19.5,304.5,304.5,0,8,1.14788,1,0,322.5,14.5,304.5,304.5,0,14.5
0.3,200,0,raster_pos:share-of-critical=0.3_connector-capacity=200,instance.test_data,0,0,0,0,40,1,random_attribute_generator {  } ,250,0,0,random_attribute_generator { Upper =  { fix Integral 1 100 }  } ,0,0,1,1,1,0,0,0,0,3,1,random_attribute_generator {  } ,15,0,0,random_attribute_generator { Upper =  { fix Integral 1 100 }  } ,0,0,1,0,1,Attributes { Edgepotential = Attribute { min Continuous 0 } Selected = Attribute { fix Continuous 0 } Upper = Attribute { fix Continuous 1 } Flow = Attribute { max Continuous 0 } } ,Attributes { Nodepotential = Attribute { min Continuous 0 } } ,random_attribute_generator { Upper =  { fix Integral 1 200 }  } ,random_attribute_generator {  } ,random_attribute_generator { Upper =  { fix Integral 1 100 }  } ,random_attribute_generator {  } ,3,1,network_connectors,820,116,14.1379,250,0.304878,3,1,3.07787,1,0,404.5,21,268.5,268.5,0,8,0.994614,1,0,289.5,16.5,268.5,268.5,0,14
0.4,20,0,raster_pos:share-of-critical=0.4_connector-capacity=20,instance.test_data,0,0,0,0,40,1,random_attribute_generator {  } ,250,0,0,random_attribute_generator { Upper =  { fix Integral 1 100 }  } ,0,0,1,1,1,0,0,0,0,3,1,random_attribute_generator {  } ,10,0,0,random_attribute_generator { Upper =  { fix Integral 1 100 }  } ,0,0,1,0,1,Attributes { Edgepotential = Attribute { min Continuous 0 } Selected = Attribute { fix Continuous 0 } Upper = Attribute { fix Continuous 1 } Flow = Attribute { max Continuous 0 } } ,Attributes { Nodepotential = Attribute { min Continuous 0 } } ,random_attribute_generator { Upper =  { fix Integral 1 20 }  } ,random_attribute_generator {  } ,random_attribute_generator { Upper =  { fix Integral 1 100 }  } ,random_attribute_generator {  } ,3,1,network_connectors,630,116,10.8621,250,0.396825,3,3,3.4102,1,0,478,22,290,290,0,9,0.660468,1,0,226.5,17,290,290,0,13.5
0.4,40,0,raster_pos:share-of-critical=0.4_connector-capacity=40,instance.test_data,0,0,0,0,40,1,random_attribute_generator {  } ,250,0,0,random_attribute_generator { Upper =  { fix Integral 1 100 }  } ,0,0,1,1,1,0,0,0,0,3,1,random_attribute_generator {  } ,10,0,0,random_attribute_generator { Upper =  { fix Integral 1 100 }  } ,0,0,1,0,1,Attributes { Edgepotential = Attribute { min Continuous 0 } Selected = Attribute { fix Continuous 0 } Upper = Attribute { fix Continuous 1 } Flow = Attribute { max Continuous 0 } } ,Attributes { Nodepotential = Attribute { min Continuous 0 } } ,random_attribute_generator { Upper =  { fix Integral 1 40 }  } ,random_attribute_generator {  } ,random_attribute_generator { Upper =  { fix Integral 1 100 }  } ,random_attribute_generator {  } ,3,1,network_connectors,630,116,10.8621,250,0.396825,3,3,2.42738,1,0,399,20.5,273.5,273.5,0,8,0.645863,1,0,216,12,273.5,273.5,0,12.5
0.4,60,0,raster_pos:share-of-critical=0.4_connector-capacity=60,instance.test_data,0,0,0,0,40,1,random_attribute_generator {  } ,250,0,0,random_attribute_generator { Upper =  { fix Integral 1 100 }  } ,0,0,1,1,1,0,0,0,0,3,1,random_attribute_generator {  } ,10,0,0,random_attribute_generator { Upper =  { fix Integral 1 100 }  } ,0,0,1,0,1,Attributes { Edgepotential = Attribute { min Continuous 0 } Selected = Attribute { fix Continuous 0 } Upper = Attribute { fix Continuous 1 } Flow = Attribute { max Continuous 0 } } ,Attributes { Nodepotential = Attribute { min Continuous 0 } } ,random_attribute_generator { Upper =  { fix Integral 1 60 }  } ,random_attribute_generator {  } ,random_attribute_generator { Upper =  { fix Integral 1 100 }  } ,random_attribute_generator {  } ,3,1,network_connectors,630,116,10.8621,250,0.396825,3,3,5.17336,1,0,694,24.5,327.5,327.5,0,10,1.86832,1,0,585,19,327.5,327.5,0,15
0.4,80,0,raster_pos:share-of-critical=0.4_connector-capacity=80,instance.test_data,0,0,0,0,40,1,random_attribute_generator {  } ,250,0,0,random_attribute_generator { Upper =  { fix Integral 1 100 }  } ,0,0,1,1,1,0,0,0,0,3,1,random_attribute_generator {  } ,10,0,0,random_attribute_generator { Upper =  { fix Integral 1 100 }  } ,0,0,1,0,1,Attributes { Edgepotential = Attribute { min Continuous 0 } Selected = Attribute { fix Continuous 0 } Upper = Attribute { fix Continuous 1 } Flow = Attribute { max Continuous 0 } } ,Attributes { Nodepotential = Attribute { min Continuous 0 } } ,random_attribute_generator { Upper =  { fix Integral 1 80 }  } ,random_attribute_generator {  } ,random_attribute_generator { Upper =  { fix Integral 1 100 }  } ,random_attribute_generator {  } ,3,1,network_connectors,630,116,10.8621,250,0.396825,3,3,2.47879,1,0,310.5,21.5,285.5,285.5,0,7.5,0.753237,1,0,226.5,17,285.5,285.5,0,14
0.4,100,0,raster_pos:share-of-critical=0.4_connector-capacity=100,instance.test_data,0,0,0,0,40,1,random_attribute_generator {  } ,250,0,0,random_attribute_generator { Upper =  { fix Integral 1 100 }  } ,0,0,1,1,1,0,0,0,0,3,1,random_attribute_generator {  } ,10,0,0,random_attribute_generator { Upper =  { fix Integral 1 100 }  } ,0,0,1,0,1,Attributes { Edgepotential = Attribute { min Continuous 0 } Selected = Attribute { fix Continuous 0 } Upper = Attribute { fix Continuous 1 } Flow = Attribute { max Continuous 0 } } ,Attributes { Nodepotential = Attribute { min Continuous 0 } } ,random_attribute_generator { Upper =  { fix Integral 1 100 }  } ,random_attribute_generator {  } ,random_attribute_generator { Upper =  { fix Integral 1 100 }  } ,random_attribute_generator {  } ,3,1,network_connectors,630,116,10.8621,250,0.396825,3,1,3.15505,1,0,510.5,19.5,269,269,0,8,0.998355,1,0,365,15.5,269,269,0,12
0.4,120,0,raster_pos:share-of-critical=0.4_connector-capacity=120,instance.test_data,0,0,0,0,40,1,random_attribute_generator {  } ,250,0,0,random_attribute_generator { Upper =  { fix Integral 1 100 }  } ,0,0,1,1,1,0,0,0,0,3,1,random_attribute_generator {  } ,10,0,0,random_attribute_generator { Upper =  { fix Integral 1 100 }  } ,0,0,1,0,1,Attributes { Edgepotential = Attribute { min Continuous 0 } Selected = Attribute { fix Continuous 0 } Upper = Attribute { fix Continuous 1 } Flow = Attribute { max Continuous 0 } } ,Attributes { Nodepotential = Attribute { min Continuous 0 } } ,random_attribute_generator { Upper =  { fix Integral 1 120 }  } ,random_attribute_generator {  } ,random_attribute_generator { Upper =  { fix Integral 1 100 }  } ,random_attribute_generator {  } ,3,1,network_connectors,630,116,10.8621,250,0.396825,3,3,2.594,1,0,386.5,21.5,287.5,287.5,0,8,0.576225,1,0,154,16.5,287.5,287.5,0,11.5
0.4,140,0,raster_pos:share-of-critical=0.4_connector-capacity=140,instance.test_data,0,0,0,0,40,1,random_attribute_generator {  } ,250,0,0,random_attribute_generator { Upper =  { fix Integral 1 100 }  } ,0,0,1,1,1,0,0,0,0,3,1,random_attribute_generator {  } ,10,0,0,random_attribute_generator { Upper =  { fix Integral 1 100 }  } ,0,0,1,0,1,Attributes { Edgepotential = Attribute { min Continuous 0 } Selected = Attribute { fix Continuous 0 } Upper = Attribute { fix Continuous 1 } Flow = Attribute { max Continuous 0 } } ,Attributes { Nodepotential = Attribute { min Continuous 0 } } ,random_attribute_generator { Upper =  { fix Integral 1 140 }  } ,random_attribute_generator {  } ,random_attribute_generator { Upper =  { fix Integral 1 100 }  } ,random_attribute_generator {  } ,3,1,network_connectors,630,116,10.8621,250,0.396825,3,3,4.68424,1,0,954.5,25.5,285.5,285.5,0,8,1.21856,1,0,558,19.5,285.5,285.5,0,17
0.4,160,0,raster_pos:share-of-critical=0.4_connector-capacity=160,instance.test_data,0,0,0,0,40,1,random_attribute_generator {  } ,250,0,0,random_attribute_generator { Upper =  { fix Integral 1 100 }  } ,0,0,1,1,1,0,0,0,0,3,1,random_attribute_generator {  } ,10,0,0,random_attribute_generator { Upper =  { fix Integral 1 100 }  } ,0,0,1,0,1,Attributes { Edgepotential = Attribute { min Continuous 0 } Selected = Attribute { fix Continuous 0 } Upper = Attribute { fix Continuous 1 } Flow = Attribute { max Continuous 0 } } ,Attributes { Nodepotential = Attribute { min Continuous 0 } } ,random_attribute_generator { Upper =  { fix Integral 1 160 }  } ,random_attribute_generator {  } ,random_attribute_generator { Upper =  { fix Integral 1 100 }  } ,random_attribute_generator {  } ,3,1,network_connectors,630,116,10.8621,250,0.396825,3,1,2.16636,1,0,274.5,15.5,240,240,0,7,0.675287,1,0,186,12.5,240,240,0,10.5
0.4,180,0,raster_pos:share-of-critical=0.4_connector-capacity=180,instance.test_data,0,0,0,0,40,1,random_attribute_generator {  } ,250,0,0,random_attribute_generator { Upper =  { fix Integral 1 100 }  } ,0,0,1,1,1,0,0,0,0,3,1,random_attribute_generator {  } ,10,0,0,random_attribute_generator { Upper =  { fix Integral 1 100 }  } ,0,0,1,0,1,Attributes { Edgepotential = Attribute { min Continuous 0 } Selected = Attribute { fix Continuous 0 } Upper = Attribute { fix Continuous 1 } Flow = Attribute { max Continuous 0 } } ,Attributes { Nodepotential = Attribute { min Continuous 0 } } ,random_attribute_generator { Upper =  { fix Integral 1 180 }  } ,random_attribute_generator {  } ,random_attribute_generator { Upper =  { fix Integral 1 100 }  } ,random_attribute_generator {  } ,3,1,network_connectors,630,116,10.8621,250,0.396825,3,3,1.93037,1,0,309.5,21,271,271,0,7,0.55218,1,0,140.5,13.5,271,271,0,11
0.4,200,0,raster_pos:share-of-critical=0.4_connector-capacity=200,instance.test_data,0,0,0,0,40,1,random_attribute_generator {  } ,250,0,0,random_attribute_generator { Upper =  { fix Integral 1 100 }  } ,0,0,1,1,1,0,0,0,0,3,1,random_attribute_generator {  } ,10,0,0,random_attribute_generator { Upper =  { fix Integral 1 100 }  } ,0,0,1,0,1,Attributes { Edgepotential = Attribute { min Continuous 0 } Selected = Attribute { fix Continuous 0 } Upper = Attribute { fix Continuous 1 } Flow = Attribute { max Continuous 0 } } ,Attributes { Nodepotential = Attribute { min Continuous 0 } } ,random_attribute_generator { Upper =  { fix Integral 1 200 }  } ,random_attribute_generator {  } ,random_attribute_generator { Upper =  { fix Integral 1 100 }  } ,random_attribute_generator {  } ,3,1,network_connectors,630,116,10.8621,250,0.396825,3,1,3.46152,1,0,534,20,285,285,0,8,1.25784,1,0,459.5,14.5,285,285,0,11.5
0.5,20,0,raster_pos:share-of-critical=0.5_connector-capacity=20,instance.test_data,0,0,0,0,40,1,random_attribute_generator {  } ,250,0,0,random_attribute_generator { Upper =  { fix Integral 1 100 }  } ,0,0,1,1,1,0,0,0,0,2,1,random_attribute_generator {  } ,7,0,0,random_attribute_generator { Upper =  { fix Integral 1 100 }  } ,0,0,1,0,1,Attributes { Edgepotential = Attribute { min Continuous 0 } Selected = Attribute { fix Continuous 0 } Upper = Attribute { fix Continuous 1 } Flow = Attribute { max Continuous 0 } } ,Attributes { Nodepotential = Attribute { min Continuous 0 } } ,random_attribute_generator { Upper =  { fix Integral 1 20 }  } ,random_attribute_generator {  } ,random_attribute_generator { Upper =  { fix Integral 1 100 }  } ,random_attribute_generator {  } ,3,1,network_connectors,516,78,13.2308,250,0.484496,3,3,4.40491,1,0,810.5,22.5,296,296,0,8,1.02096,1,0,355,20.5,296,296,0,15.5
0.5,40,0,raster_pos:share-of-critical=0.5_connector-capacity=40,instance.test_data,0,0,0,0,40,1,random_attribute_generator {  } ,250,0,0,random_attribute_generator { Upper =  { fix Integral 1 100 }  } ,0,0,1,1,1,0,0,0,0,2,1,random_attribute_generator {  } ,7,0,0,random_attribute_generator { Upper =  { fix Integral 1 100 }  } ,0,0,1,0,1,Attributes { Edgepotential = Attribute { min Continuous 0 } Selected = Attribute { fix Continuous 0 } Upper = Attribute { fix Continuous 1 } Flow = Attribute { max Continuous 0 } } ,Attributes { Nodepotential = Attribute { min Continuous 0 } } ,random_attribute_generator { Upper =  { fix Integral 1 40 }  } ,random_attribute_generator {  } ,random_attribute_generator { Upper =  { fix Integral 1 100 }  } ,random_attribute_generator {  } ,3,1,network_connectors,516,78,13.2308,250,0.484496,3,1,2.5391,1,0,351,16.5,268,268,0,7,0.437721,1,0,118,11,268,268,0,11
0.5,60,0,raster_pos:share-of-critical=0.5_connector-capacity=60,instance.test_data,0,0,0,0,40,1,random_attribute_generator {  } ,250,0,0,random_attribute_generator { Upper =  { fix Integral 1 100 }  } ,0,0,1,1,1,0,0,0,0,2,1,random_attribute_generator {  } ,7,0,0,random_attribute_generator { Upper =  { fix Integral 1 100 }  } ,0,0,1,0,1,Attributes { Edgepotential = Attribute { min Continuous 0 } Selected = Attribute { fix Continuous 0 } Upper = Attribute { fix Continuous 1 } Flow = Attribute { max Continuous 0 } } ,Attributes { Nodepotential = Attribute { min Continuous 0 } } ,random_attribute_generator { Upper =  { fix Integral 1 60 }  } ,random_attribute_generator {  } ,random_attribute_generator { Upper =  { fix Integral 1 100 }  } ,random_attribute_generator {  } ,3,1,network_connectors,516,78,13.2308,250,0.484496,3,1,3.25135,1,0,498,22,318.5,318.5,0,7,0.846522,1,0,345,17,318.5,318.5,0,15.5
0.5,80,0,raster_pos:share-of-critical=0.5_connector-capacity=80,instance.test_data,0,0,0,0,40,1,random_attribute_generator {  } ,250,0,0,random_attribute_generator { Upper =  { fix Integral 1 100 }  } ,0,0,1,1,1,0,0,0,0,2,1,random_attribute_generator {  } ,7,0,0,random_attribute_generator { Upper =  { fix Integral 1 100 }  } ,0,0,1,0,1,Attributes { Edgepotential = Attribute { min Continuous 0 } Selected = Attribute { fix Continuous 0 } Upper = Attribute { fix Continuous 1 } Flow = Attribute { max Continuous 0 } } ,Attributes { Nodepotential = Attribute { min Continuous 0 } } ,random_attribute_generator { Upper =  { fix Integral 1 80 }  } ,random_attribute_generator {  } ,random_attribute_generator { Upper =  { fix Integral 1 100 }  } ,random_attribute_generator {  } ,3,1,network_connectors,516,78,13.2308,250,0.484496,3,3,2.05324,1,0,323.5,20,266,266,0,8,0.668122,1,0,188.5,14.5,266,266,0,14
0.5,100,0,raster_pos:share-of-critical=0.5_connector-capacity=100,instance.test_data,0,0,0,0,40,1,random_attribute_generator {  } ,250,0,0,random_attribute_generator { Upper =  { fix Integral 1 100 }  } ,0,0,1,1,1,0,0,0,0,2,1,random_attribute_generator {  } ,7,0,0,random_attribute_generator { Upper =  { fix Integral 1 100 }  } ,0,0,1,0,1,Attributes { Edgepotential = Attribute { min Continuous 0 } Selected = Attribute { fix Continuous 0 } Upper = Attribute { fix Continuous 1 } Flow = Attribute { max Continuous 0 } } ,Attributes { Nodepotential = Attribute { min Continuous 0 } } ,random_attribute_generator { Upper =  { fix Integral 1 100 }  } ,random_attribute_generator {  } ,random_attribute_generator { Upper =  { fix Integral 1 100 }  } ,random_attribute_generator {  } ,3,1,network_connectors,516,78,13.2308,250,0.484496,3,3,3.58268,1,0,563,23,281.5,281.5,0,8.5,0.900861,1,0,323,19.5,281.5,281.5,0,15.5
0.5,120,0,raster_pos:share-of-critical=0.5_connector-capacity=120,instance.test_data,0,0,0,0,40,1,random_attribute_generator {  } ,250,0,0,random_attribute_generator { Upper =  { fix Integral 1 100 }  } ,0,0,1,1,1,0,0,0,0,2,1,random_attribute_generator {  } ,7,0,0,random_attribute_generator { Upper =  { fix Integral 1 100 }  } ,0,0,1,0,1,Attributes { Edgepotential = Attribute { min Continuous 0 } Selected = Attribute { fix Continuous 0 } Upper = Attribute { fix Continuous 1 } Flow = Attribute { max Continuous 0 } } ,Attributes { Nodepotential = Attribute { min Continuous 0 } } ,random_attribute_generator { Upper =  { fix Integral 1 120 }  } ,random_attribute_generator {  } ,random_attribute_generator { Upper =  { fix Integral 1 100 }  } ,random_attribute_generator {  } ,3,1,network_connectors,516,78,13.2308,250,0.484496,3,3,1.27123,1,0,216.5,15.5,245,245,0,7,0.425834,1,0,98.5,11.5,245,245,0,12
0.5,140,0,raster_pos:share-of-critical=0.5_connector-capacity=140,instance.test_data,0,0,0,0,40,1,random_attribute_generator {  } ,250,0,0,random_attribute_generator { Upper =  { fix Integral 1 100 }  } ,0,0,1,1,1,0,0,0,0,2,1,random_attribute_generator {  } ,7,0,0,random_attribute_generator { Upper =  { fix Integral 1 100 }  } ,0,0,1,0,1,Attributes { Edgepotential = Attribute { min Continuous 0 } Selected = Attribute { fix Continuous 0 } Upper = Attribute { fix Continuous 1 } Flow = Attribute { max Continuous 0 } } ,Attributes { Nodepotential = Attribute { min Continuous 0 } } ,random_attribute_generator { Upper =  { fix Integral 1 140 }  } ,random_attribute_generator {  } ,random_attribute_generator { Upper =  { fix Integral 1 100 }  } ,random_attribute_generator {  } ,3,1,network_connectors,516,78,13.2308,250,0.484496,3,3,1.82889,1,0,315.5,19,285,285,0,7,0.747951,1,0,201,15,285,285,0,12.5
0.5,160,0,raster_pos:share-of-critical=0.5_connector-capacity=160,instance.test_data,0,0,0,0,40,1,random_attribute_generator {  } ,250,0,0,random_attribute_generator { Upper =  { fix Integral 1 100 }  } ,0,0,1,1,1,0,0,0,0,2,1,random_attribute_generator {  } ,7,0,0,random_attribute_generator { Upper =  { fix Integral 1 100 }  } ,0,0,1,0,1,Attributes { Edgepotential = Attribute { min Continuous 0 } Selected = Attribute { fix Continuous 0 } Upper = Attribute { fix Continuous 1 } Flow = Attribute { max Continuous 0 } } ,Attributes { Nodepotential = Attribute { min Continuous 0 } } ,random_attribute_generator { Upper =  { fix Integral 1 160 }  } ,random_attribute_generator {  } ,random_attribute_generator { Upper =  { fix Integral 1 100 }  } ,random_attribute_generator {  } ,3,1,network_connectors,516,78,13.2308,250,0.484496,3,3,4.20915,1,0,1172,23,273.5,273.5,0,8,0.912224,1,0,379.5,17,273.5,273.5,0,11.5
0.5,180,0,raster_pos:share-of-critical=0.5_connector-capacity=180,instance.test_data,0,0,0,0,40,1,random_attribute_generator {  } ,250,0,0,random_attribute_generator { Upper =  { fix Integral 1 100 }  } ,0,0,1,1,1,0,0,0,0,2,1,random_attribute_generator {  } ,7,0,0,random_attribute_generator { Upper =  { fix Integral 1 100 }  } ,0,0,1,0,1,Attributes { Edgepotential = Attribute { min Continuous 0 } Selected = Attribute { fix Continuous 0 } Upper = Attribute { fix Continuous 1 } Flow = Attribute { max Continuous 0 } } ,Attributes { Nodepotential = Attribute { min Continuous 0 } } ,random_attribute_generator { Upper =  { fix Integral 1 180 }  } ,random_attribute_generator {  } ,random_attribute_generator { Upper =  { fix Integral 1 100 }  } ,random_attribute_generator {  } ,3,1,network_connectors,516,78,13.2308,250,0.484496,3,1,3.36149,1,0,520.5,19.5,281.5,281.5,0,9,0.991232,1,0,338,21.5,281.5,281.5,0,14.5
0.5,200,0,raster_pos:share-of-critical=0.5_connector-capacity=200,instance.test_data,0,0,0,0,40,1,random_attribute_generator {  } ,250,0,0,random_attribute_generator { Upper =  { fix Integral 1 100 }  } ,0,0,1,1,1,0,0,0,0,2,1,random_attribute_generator {  } ,7,0,0,random_attribute_generator { Upper =  { fix Integral 1 100 }  } ,0,0,1,0,1,Attributes { Edgepotential = Attribute { min Continuous 0 } Selected = Attribute { fix Continuous 0 } Upper = Attribute { fix Continuous 1 } Flow = Attribute { max Continuous 0 } } ,Attributes { Nodepotential = Attribute { min Continuous 0 } } ,random_attribute_generator { Upper =  { fix Integral 1 200 }  } ,random_attribute_generator {  } ,random_attribute_generator { Upper =  { fix Integral 1 100 }  } ,random_attribute_generator {  } ,3,1,network_connectors,516,78,13.2308,250,0.484496,3,3,1.59743,1,0,280,19,246,246,0,8.5,0.382689,1,0,125,12,246,246,0,12
