share-of-critical,dummy,marked_for_inspection,path,name,structure_graph_tip,structure_graph_shelter_orphans,structure_graph_only_tip_fringes,structure_graph_only_tip_extreme_layer,structure_graph_number_of_nodes,structure_graph_number_of_steps,structure_graph_random_attribute_generator,structure_graph_number_of_edges,structure_graph_fuzzing_distance_from,structure_graph_fuzzing_distance_to,structure_graph_random_attribute_generator,structure_graph_at_least_strongly_connected,structure_graph_at_least_weakly_connected,structure_graph_acyclic,structure_graph_simple,structure_graph_anti_reflexive,cluster_tip,cluster_shelter_orphans,cluster_only_tip_fringes,cluster_only_tip_extreme_layer,cluster_number_of_nodes,cluster_number_of_steps,cluster_random_attribute_generator,cluster_number_of_edges,cluster_fuzzing_distance_from,cluster_fuzzing_distance_to,cluster_random_attribute_generator,cluster_at_least_strongly_connected,cluster_at_least_weakly_connected,cluster_acyclic,cluster_simple,cluster_anti_reflexive,default_edge_attributes,default_node_attributes,structure_graph_edge_tipping_random_attribute_generator,structure_graph_node_tipping_random_attribute_generator,cluster_edge_tipping_random_attribute_generator,cluster_node_tipping_random_attribute_generator,number_of_epochs,share_of_critical,critical_selection_policy,example_number_of_edges,example_number_of_nodes,example_avg_incid_per_node,example_number_of_critical_edges,example_share_of_critical,example_number_of_epochs,example_path_length_lower_bound,maintenance_problem_ip_time_in_sec,maintenance_problem_ip_number_of_bnb_runs,maintenance_problem_ip_number_of_reopt_runs,maintenance_problem_ip_number_of_nodes_explored,maintenance_problem_ip_max_depth,maintenance_problem_ip_dual_bound,maintenance_problem_ip_primal_bound,maintenance_problem_ip_gap,maintenance_problem_ip_number_of_primal_sols,maintenance_problem_benders_time_in_sec,maintenance_problem_benders_number_of_bnb_runs,maintenance_problem_benders_number_of_reopt_runs,maintenance_problem_benders_number_of_nodes_explored,maintenance_problem_benders_max_depth,maintenance_problem_benders_dual_bound,maintenance_problem_benders_primal_bound,maintenance_problem_benders_gap,maintenance_problem_benders_number_of_primal_sols
0.2,0,0,raster_pos:share-of-critical=0.2_dummy=0,instance.test_data,0,0,0,0,200,1,random_attribute_generator {  } ,1250,0,0,random_attribute_generator { Upper =  { fix Integral 1 100 }  } ,0,0,1,1,1,1,1,1,0,1,1,random_attribute_generator {  } ,0,0,0,random_attribute_generator { Upper =  { fix Integral 1 100 }  } ,0,0,1,1,1,Attributes { Flow = Attribute { max Continuous 0 } Upper = Attribute { fix Continuous 1 } Selected = Attribute { fix Continuous 0 } Edgepotential = Attribute { min Continuous 0 } } ,Attributes { Nodepotential = Attribute { min Continuous 0 } } ,random_attribute_generator { Upper =  { fix Integral 1 100 }  } ,random_attribute_generator {  } ,random_attribute_generator { Upper =  { fix Integral 1 100 }  } ,random_attribute_generator {  } ,3,0.2,everywhere,1250,200,12.5,250,0.2,3,2,1.07542,1,0,1,0,361,361,0,3,0.334298,1,0,1,0,361,361,0,3.5
0.3,0,0,raster_pos:share-of-critical=0.3_dummy=0,instance.test_data,0,0,0,0,133,1,random_attribute_generator {  } ,833,0,0,random_attribute_generator { Upper =  { fix Integral 1 100 }  } ,0,0,1,1,1,1,1,1,0,1,1,random_attribute_generator {  } ,0,0,0,random_attribute_generator { Upper =  { fix Integral 1 100 }  } ,0,0,1,1,1,Attributes { Flow = Attribute { max Continuous 0 } Upper = Attribute { fix Continuous 1 } Selected = Attribute { fix Continuous 0 } Edgepotential = Attribute { min Continuous 0 } } ,Attributes { Nodepotential = Attribute { min Continuous 0 } } ,random_attribute_generator { Upper =  { fix Integral 1 100 }  } ,random_attribute_generator {  } ,random_attribute_generator { Upper =  { fix Integral 1 100 }  } ,random_attribute_generator {  } ,3,0.3,everywhere,833,133,12.5263,249,0.29892,3,3,1.00611,1,0,1,0,384,384,0,3,0.262972,1,0,2,0.5,384,384,0,5.5
0.4,0,0,raster_pos:share-of-critical=0.4_dummy=0,instance.test_data,0,0,0,0,100,1,random_attribute_generator {  } ,625,0,0,random_attribute_generator { Upper =  { fix Integral 1 100 }  } ,0,0,1,1,1,1,1,1,0,1,1,random_attribute_generator {  } ,0,0,0,random_attribute_generator { Upper =  { fix Integral 1 100 }  } ,0,0,1,1,1,Attributes { Flow = Attribute { max Continuous 0 } Upper = Attribute { fix Continuous 1 } Selected = Attribute { fix Continuous 0 } Edgepotential = Attribute { min Continuous 0 } } ,Attributes { Nodepotential = Attribute { min Continuous 0 } } ,random_attribute_generator { Upper =  { fix Integral 1 100 }  } ,random_attribute_generator {  } ,random_attribute_generator { Upper =  { fix Integral 1 100 }  } ,random_attribute_generator {  } ,3,0.4,everywhere,625,100,12.5,250,0.4,3,2,1.08747,1,0,10.5,6.5,300,300,0,4,0.257209,1,0,13,4.5,300,300,0,6
0.5,0,0,raster_pos:share-of-critical=0.5_dummy=0,instance.test_data,0,0,0,0,80,1,random_attribute_generator {  } ,500,0,0,random_attribute_generator { Upper =  { fix Integral 1 100 }  } ,0,0,1,1,1,1,1,1,0,1,1,random_attribute_generator {  } ,0,0,0,random_attribute_generator { Upper =  { fix Integral 1 100 }  } ,0,0,1,1,1,Attributes { Flow = Attribute { max Continuous 0 } Upper = Attribute { fix Continuous 1 } Selected = Attribute { fix Continuous 0 } Edgepotential = Attribute { min Continuous 0 } } ,Attributes { Nodepotential = Attribute { min Continuous 0 } } ,random_attribute_generator { Upper =  { fix Integral 1 100 }  } ,random_attribute_generator {  } ,random_attribute_generator { Upper =  { fix Integral 1 100 }  } ,random_attribute_generator {  } ,3,0.5,everywhere,500,80,12.5,250,0.5,3,2,1.27031,1,0,51,9,359,359,0,5,0.267502,1,0,37,8,359,359,0,8
0.6,0,0,raster_pos:share-of-critical=0.6_dummy=0,instance.test_data,0,0,0,0,66,1,random_attribute_generator {  } ,417,0,0,random_attribute_generator { Upper =  { fix Integral 1 100 }  } ,0,0,1,1,1,1,1,1,0,1,1,random_attribute_generator {  } ,0,0,0,random_attribute_generator { Upper =  { fix Integral 1 100 }  } ,0,0,1,1,1,Attributes { Flow = Attribute { max Continuous 0 } Upper = Attribute { fix Continuous 1 } Selected = Attribute { fix Continuous 0 } Edgepotential = Attribute { min Continuous 0 } } ,Attributes { Nodepotential = Attribute { min Continuous 0 } } ,random_attribute_generator { Upper =  { fix Integral 1 100 }  } ,random_attribute_generator {  } ,random_attribute_generator { Upper =  { fix Integral 1 100 }  } ,random_attribute_generator {  } ,3,0.6,everywhere,417,66,12.6364,250,0.59952,3,1,1.02131,1,0,142.5,11.5,281.5,281.5,0,5,0.178888,1,0,18,6,281.5,281.5,0,6
0.7,0,0,raster_pos:share-of-critical=0.7_dummy=0,instance.test_data,0,0,0,0,57,1,random_attribute_generator {  } ,357,0,0,random_attribute_generator { Upper =  { fix Integral 1 100 }  } ,0,0,1,1,1,1,1,1,0,1,1,random_attribute_generator {  } ,0,0,0,random_attribute_generator { Upper =  { fix Integral 1 100 }  } ,0,0,1,1,1,Attributes { Flow = Attribute { max Continuous 0 } Upper = Attribute { fix Continuous 1 } Selected = Attribute { fix Continuous 0 } Edgepotential = Attribute { min Continuous 0 } } ,Attributes { Nodepotential = Attribute { min Continuous 0 } } ,random_attribute_generator { Upper =  { fix Integral 1 100 }  } ,random_attribute_generator {  } ,random_attribute_generator { Upper =  { fix Integral 1 100 }  } ,random_attribute_generator {  } ,3,0.7,everywhere,357,57,12.5263,249,0.697479,3,2,1.26521,1,0,77,10.5,284.5,284.5,0,6,0.215792,1,0,26.5,7.5,284.5,284.5,0,8
0.8,0,0,raster_pos:share-of-critical=0.8_dummy=0,instance.test_data,0,0,0,0,50,1,random_attribute_generator {  } ,313,0,0,random_attribute_generator { Upper =  { fix Integral 1 100 }  } ,0,0,1,1,1,1,1,1,0,1,1,random_attribute_generator {  } ,0,0,0,random_attribute_generator { Upper =  { fix Integral 1 100 }  } ,0,0,1,1,1,Attributes { Flow = Attribute { max Continuous 0 } Upper = Attribute { fix Continuous 1 } Selected = Attribute { fix Continuous 0 } Edgepotential = Attribute { min Continuous 0 } } ,Attributes { Nodepotential = Attribute { min Continuous 0 } } ,random_attribute_generator { Upper =  { fix Integral 1 100 }  } ,random_attribute_generator {  } ,random_attribute_generator { Upper =  { fix Integral 1 100 }  } ,random_attribute_generator {  } ,3,0.8,everywhere,313,50,12.52,250,0.798722,3,2,2.04352,1,0,218.5,17.5,307,307,0,7,0.493669,1,0,172,16.5,307,307,0,11
0.9,0,0,raster_pos:share-of-critical=0.9_dummy=0,instance.test_data,0,0,0,0,44,1,random_attribute_generator {  } ,278,0,0,random_attribute_generator { Upper =  { fix Integral 1 100 }  } ,0,0,1,1,1,1,1,1,0,1,1,random_attribute_generator {  } ,0,0,0,random_attribute_generator { Upper =  { fix Integral 1 100 }  } ,0,0,1,1,1,Attributes { Flow = Attribute { max Continuous 0 } Upper = Attribute { fix Continuous 1 } Selected = Attribute { fix Continuous 0 } Edgepotential = Attribute { min Continuous 0 } } ,Attributes { Nodepotential = Attribute { min Continuous 0 } } ,random_attribute_generator { Upper =  { fix Integral 1 100 }  } ,random_attribute_generator {  } ,random_attribute_generator { Upper =  { fix Integral 1 100 }  } ,random_attribute_generator {  } ,3,0.9,everywhere,278,44,12.6364,250,0.899281,3,2,1.20783,1,0,121.5,15.5,312,312,0,6,0.329402,1,0,105.5,11,312,312,0,10
1,0,0,raster_pos:share-of-critical=1_dummy=0,instance.test_data,0,0,0,0,40,1,random_attribute_generator {  } ,250,0,0,random_attribute_generator { Upper =  { fix Integral 1 100 }  } ,0,0,1,1,1,1,1,1,0,1,1,random_attribute_generator {  } ,0,0,0,random_attribute_generator { Upper =  { fix Integral 1 100 }  } ,0,0,1,1,1,Attributes { Flow = Attribute { max Continuous 0 } Upper = Attribute { fix Continuous 1 } Selected = Attribute { fix Continuous 0 } Edgepotential = Attribute { min Continuous 0 } } ,Attributes { Nodepotential = Attribute { min Continuous 0 } } ,random_attribute_generator { Upper =  { fix Integral 1 100 }  } ,random_attribute_generator {  } ,random_attribute_generator { Upper =  { fix Integral 1 100 }  } ,random_attribute_generator {  } ,3,1,everywhere,250,40,12.5,250,1,3,2,2.88292,1,0,524.5,20.5,255.5,255.5,0,7.5,0.468102,1,0,330.5,18.5,255.5,255.5,0,12
