share-of-critical,dummy,marked_for_inspection,path,name,structure_graph_tip,structure_graph_shelter_orphans,structure_graph_only_tip_fringes,structure_graph_only_tip_extreme_layer,structure_graph_number_of_nodes,structure_graph_number_of_steps,structure_graph_random_attribute_generator,structure_graph_number_of_edges,structure_graph_fuzzing_distance_from,structure_graph_fuzzing_distance_to,structure_graph_random_attribute_generator,structure_graph_at_least_strongly_connected,structure_graph_at_least_weakly_connected,structure_graph_acyclic,structure_graph_simple,structure_graph_anti_reflexive,cluster_tip,cluster_shelter_orphans,cluster_only_tip_fringes,cluster_only_tip_extreme_layer,cluster_number_of_nodes,cluster_number_of_steps,cluster_random_attribute_generator,cluster_number_of_edges,cluster_fuzzing_distance_from,cluster_fuzzing_distance_to,cluster_random_attribute_generator,cluster_at_least_strongly_connected,cluster_at_least_weakly_connected,cluster_acyclic,cluster_simple,cluster_anti_reflexive,default_edge_attributes,default_node_attributes,structure_graph_edge_tipping_random_attribute_generator,structure_graph_node_tipping_random_attribute_generator,cluster_edge_tipping_random_attribute_generator,cluster_node_tipping_random_attribute_generator,number_of_epochs,share_of_critical,critical_selection_policy,example_number_of_edges,example_number_of_nodes,example_avg_incid_per_node,example_number_of_critical_edges,example_share_of_critical,example_number_of_epochs,example_path_length_lower_bound,maintenance_problem_ip_time_in_sec,maintenance_problem_ip_number_of_bnb_runs,maintenance_problem_ip_number_of_reopt_runs,maintenance_problem_ip_number_of_nodes_explored,maintenance_problem_ip_max_depth,maintenance_problem_ip_dual_bound,maintenance_problem_ip_primal_bound,maintenance_problem_ip_gap,maintenance_problem_ip_number_of_primal_sols,maintenance_problem_benders_time_in_sec,maintenance_problem_benders_number_of_bnb_runs,maintenance_problem_benders_number_of_reopt_runs,maintenance_problem_benders_number_of_nodes_explored,maintenance_problem_benders_max_depth,maintenance_problem_benders_dual_bound,maintenance_problem_benders_primal_bound,maintenance_problem_benders_gap,maintenance_problem_benders_number_of_primal_sols
0.4,0,0,raster_pos:share-of-critical=0.4_dummy=0,instance.test_data,0,0,0,0,40,1,random_attribute_generator {  } ,625,0,0,random_attribute_generator { Upper =  { fix Integral 1 100 }  } ,0,0,1,1,1,1,1,1,0,1,1,random_attribute_generator {  } ,0,0,0,random_attribute_generator { Upper =  { fix Integral 1 100 }  } ,0,0,1,1,1,Attributes { Flow = Attribute { max Continuous 0 } Upper = Attribute { fix Continuous 1 } Selected = Attribute { fix Continuous 0 } Edgepotential = Attribute { min Continuous 0 } } ,Attributes { Nodepotential = Attribute { min Continuous 0 } } ,random_attribute_generator { Upper =  { fix Integral 1 100 }  } ,random_attribute_generator {  } ,random_attribute_generator { Upper =  { fix Integral 1 100 }  } ,random_attribute_generator {  } ,3,0.4,everywhere,625,40,31.25,250,0.4,3,1,80.9303,1,0,46616.7,25.25,1174.2,1174.2,0,11.05,18.6674,1,0,18005.5,16.1,1174.2,1174.2,0,25.9
0.475,0,0,raster_pos:share-of-critical=0.475_dummy=0,instance.test_data,0,0,0,0,40,1,random_attribute_generator {  } ,526,0,0,random_attribute_generator { Upper =  { fix Integral 1 100 }  } ,0,0,1,1,1,1,1,1,0,1,1,random_attribute_generator {  } ,0,0,0,random_attribute_generator { Upper =  { fix Integral 1 100 }  } ,0,0,1,1,1,Attributes { Flow = Attribute { max Continuous 0 } Upper = Attribute { fix Continuous 1 } Selected = Attribute { fix Continuous 0 } Edgepotential = Attribute { min Continuous 0 } } ,Attributes { Nodepotential = Attribute { min Continuous 0 } } ,random_attribute_generator { Upper =  { fix Integral 1 100 }  } ,random_attribute_generator {  } ,random_attribute_generator { Upper =  { fix Integral 1 100 }  } ,random_attribute_generator {  } ,3,0.475,everywhere,526,40,26.3,249,0.473384,3,1,23.485,1,0,12185.5,26.15,915.95,915.95,0,10.05,3.56926,1,0,2859.7,16.55,915.95,915.95,0,21.1
0.55,0,0,raster_pos:share-of-critical=0.55_dummy=0,instance.test_data,0,0,0,0,40,1,random_attribute_generator {  } ,455,0,0,random_attribute_generator { Upper =  { fix Integral 1 100 }  } ,0,0,1,1,1,1,1,1,0,1,1,random_attribute_generator {  } ,0,0,0,random_attribute_generator { Upper =  { fix Integral 1 100 }  } ,0,0,1,1,1,Attributes { Flow = Attribute { max Continuous 0 } Upper = Attribute { fix Continuous 1 } Selected = Attribute { fix Continuous 0 } Edgepotential = Attribute { min Continuous 0 } } ,Attributes { Nodepotential = Attribute { min Continuous 0 } } ,random_attribute_generator { Upper =  { fix Integral 1 100 }  } ,random_attribute_generator {  } ,random_attribute_generator { Upper =  { fix Integral 1 100 }  } ,random_attribute_generator {  } ,3,0.55,everywhere,455,40,22.75,250,0.549451,3,2,21.2614,1,0,10217.2,26.25,716.3,716.3,0,9.35,3.54246,1,0,3233.45,15.75,716.3,716.3,0,18.35
0.625,0,0,raster_pos:share-of-critical=0.625_dummy=0,instance.test_data,0,0,0,0,40,1,random_attribute_generator {  } ,400,0,0,random_attribute_generator { Upper =  { fix Integral 1 100 }  } ,0,0,1,1,1,1,1,1,0,1,1,random_attribute_generator {  } ,0,0,0,random_attribute_generator { Upper =  { fix Integral 1 100 }  } ,0,0,1,1,1,Attributes { Flow = Attribute { max Continuous 0 } Upper = Attribute { fix Continuous 1 } Selected = Attribute { fix Continuous 0 } Edgepotential = Attribute { min Continuous 0 } } ,Attributes { Nodepotential = Attribute { min Continuous 0 } } ,random_attribute_generator { Upper =  { fix Integral 1 100 }  } ,random_attribute_generator {  } ,random_attribute_generator { Upper =  { fix Integral 1 100 }  } ,random_attribute_generator {  } ,3,0.625,everywhere,400,40,20,250,0.625,3,2,18.9103,1,0,8616.7,20.85,587.35,587.35,0,8.5,3.66317,1,0,2661.85,48.65,587.6,587.35,0.000361271,17.35
0.7,0,0,raster_pos:share-of-critical=0.7_dummy=0,instance.test_data,0,0,0,0,40,1,random_attribute_generator {  } ,357,0,0,random_attribute_generator { Upper =  { fix Integral 1 100 }  } ,0,0,1,1,1,1,1,1,0,1,1,random_attribute_generator {  } ,0,0,0,random_attribute_generator { Upper =  { fix Integral 1 100 }  } ,0,0,1,1,1,Attributes { Flow = Attribute { max Continuous 0 } Upper = Attribute { fix Continuous 1 } Selected = Attribute { fix Continuous 0 } Edgepotential = Attribute { min Continuous 0 } } ,Attributes { Nodepotential = Attribute { min Continuous 0 } } ,random_attribute_generator { Upper =  { fix Integral 1 100 }  } ,random_attribute_generator {  } ,random_attribute_generator { Upper =  { fix Integral 1 100 }  } ,random_attribute_generator {  } ,3,0.7,everywhere,356,40,17.8,249,0.699438,3,2,19.7409,1,0,9577.05,20.35,503.65,503.65,0,8.85,5.0081,1,0,4840.45,14.85,503.65,503.65,0,21.4
0.775,0,0,raster_pos:share-of-critical=0.775_dummy=0,instance.test_data,0,0,0,0,40,1,random_attribute_generator {  } ,323,0,0,random_attribute_generator { Upper =  { fix Integral 1 100 }  } ,0,0,1,1,1,1,1,1,0,1,1,random_attribute_generator {  } ,0,0,0,random_attribute_generator { Upper =  { fix Integral 1 100 }  } ,0,0,1,1,1,Attributes { Flow = Attribute { max Continuous 0 } Upper = Attribute { fix Continuous 1 } Selected = Attribute { fix Continuous 0 } Edgepotential = Attribute { min Continuous 0 } } ,Attributes { Nodepotential = Attribute { min Continuous 0 } } ,random_attribute_generator { Upper =  { fix Integral 1 100 }  } ,random_attribute_generator {  } ,random_attribute_generator { Upper =  { fix Integral 1 100 }  } ,random_attribute_generator {  } ,3,0.775,everywhere,323,40,16.15,250,0.773994,3,1,10.3979,1,0,3550.9,28,472.85,472.85,0,9.1,3.37992,1,0,2126.9,18.45,472.85,472.85,0,17.15
0.85,0,0,raster_pos:share-of-critical=0.85_dummy=0,instance.test_data,0,0,0,0,40,1,random_attribute_generator {  } ,294,0,0,random_attribute_generator { Upper =  { fix Integral 1 100 }  } ,0,0,1,1,1,1,1,1,0,1,1,random_attribute_generator {  } ,0,0,0,random_attribute_generator { Upper =  { fix Integral 1 100 }  } ,0,0,1,1,1,Attributes { Flow = Attribute { max Continuous 0 } Upper = Attribute { fix Continuous 1 } Selected = Attribute { fix Continuous 0 } Edgepotential = Attribute { min Continuous 0 } } ,Attributes { Nodepotential = Attribute { min Continuous 0 } } ,random_attribute_generator { Upper =  { fix Integral 1 100 }  } ,random_attribute_generator {  } ,random_attribute_generator { Upper =  { fix Integral 1 100 }  } ,random_attribute_generator {  } ,3,0.85,everywhere,294,40,14.7,249,0.846939,3,1,13.2345,1,0,5326.6,24.8,372.75,372.75,0,9.35,1.8106,1,0,708.4,16.1,372.75,372.75,0,14.4
0.925,0,0,raster_pos:share-of-critical=0.925_dummy=0,instance.test_data,0,0,0,0,40,1,random_attribute_generator {  } ,270,0,0,random_attribute_generator { Upper =  { fix Integral 1 100 }  } ,0,0,1,1,1,1,1,1,0,1,1,random_attribute_generator {  } ,0,0,0,random_attribute_generator { Upper =  { fix Integral 1 100 }  } ,0,0,1,1,1,Attributes { Flow = Attribute { max Continuous 0 } Upper = Attribute { fix Continuous 1 } Selected = Attribute { fix Continuous 0 } Edgepotential = Attribute { min Continuous 0 } } ,Attributes { Nodepotential = Attribute { min Continuous 0 } } ,random_attribute_generator { Upper =  { fix Integral 1 100 }  } ,random_attribute_generator {  } ,random_attribute_generator { Upper =  { fix Integral 1 100 }  } ,random_attribute_generator {  } ,3,0.925,everywhere,270,40,13.5,249,0.922222,3,2,7.97489,1,0,3056.5,24.75,364.35,364.35,0,8.2,9.93681,1,0,6903.8,18.45,364.35,364.35,0,18.35
1,0,0,raster_pos:share-of-critical=1_dummy=0,instance.test_data,0,0,0,0,40,1,random_attribute_generator {  } ,250,0,0,random_attribute_generator { Upper =  { fix Integral 1 100 }  } ,0,0,1,1,1,1,1,1,0,1,1,random_attribute_generator {  } ,0,0,0,random_attribute_generator { Upper =  { fix Integral 1 100 }  } ,0,0,1,1,1,Attributes { Flow = Attribute { max Continuous 0 } Upper = Attribute { fix Continuous 1 } Selected = Attribute { fix Continuous 0 } Edgepotential = Attribute { min Continuous 0 } } ,Attributes { Nodepotential = Attribute { min Continuous 0 } } ,random_attribute_generator { Upper =  { fix Integral 1 100 }  } ,random_attribute_generator {  } ,random_attribute_generator { Upper =  { fix Integral 1 100 }  } ,random_attribute_generator {  } ,3,1,everywhere,250,40,12.5,250,1,3,2,3.94824,1,0,881.2,20.95,301.65,301.65,0,9.5,1.07022,1,0,529.8,18.8,301.65,301.65,0,13.15
